# Blender v2.60 (sub 0) OBJ File: ''
# www.blender.org
mtllib MotorPD.mtl
o Mesh_MotorP
v -0.009325 0.006358 -0.028800
v -0.008274 0.007677 -0.028800
v -0.007677 0.008274 -0.028800
v -0.007037 0.008824 -0.028800
v -0.010506 0.004123 -0.028800
v -0.010169 0.004897 -0.028800
v -0.011160 -0.001682 -0.028800
v -0.005643 -0.009774 -0.028800
v -0.006358 -0.009325 -0.028800
v -0.008824 0.007037 -0.028800
v -0.009774 0.005643 -0.028800
v -0.011160 0.001682 -0.028800
v -0.011003 0.002511 -0.028800
v -0.007677 -0.008274 -0.028800
v -0.008274 -0.007677 -0.028800
v -0.007037 -0.008824 -0.028800
v 0.010785 0.003326 -0.028800
v 0.011003 0.002511 -0.028800
v 0.009774 0.005643 -0.028800
v 0.010169 0.004897 -0.028800
v -0.005643 0.009774 -0.028800
v -0.004897 0.010169 -0.028800
v -0.006358 0.009325 -0.028800
v -0.010785 0.003326 -0.028800
v -0.010506 -0.004123 -0.028800
v -0.010785 -0.003326 -0.028800
v -0.009774 -0.005643 -0.028800
v -0.010169 -0.004897 -0.028800
v -0.008824 -0.007037 -0.028800
v -0.004897 -0.010169 -0.028800
v -0.003326 -0.010785 -0.028800
v -0.004123 -0.010506 -0.028800
v -0.000000 -0.011286 -0.028800
v -0.000843 -0.011254 -0.028800
v 0.001682 -0.011160 -0.028800
v 0.000843 -0.011254 -0.028800
v 0.004897 -0.010169 -0.028800
v 0.004123 -0.010506 -0.028800
v 0.006358 -0.009325 -0.028800
v 0.005643 -0.009774 -0.028800
v 0.008274 -0.007677 -0.028800
v 0.007677 -0.008274 -0.028800
v 0.011160 -0.001682 -0.028800
v 0.011003 -0.002511 -0.028800
v 0.010506 0.004123 -0.028800
v 0.009325 0.006358 -0.028800
v 0.008274 0.007677 -0.028800
v 0.008824 0.007037 -0.028800
v 0.005643 0.009774 -0.028800
v 0.006358 0.009325 -0.028800
v -0.003326 0.010785 -0.028800
v -0.002511 0.011003 -0.028800
v -0.009325 -0.006358 -0.028800
v -0.001682 -0.011160 -0.028800
v -0.002511 -0.011003 -0.028800
v 0.003326 -0.010785 -0.028800
v 0.002511 -0.011003 -0.028800
v 0.007037 -0.008824 -0.028800
v 0.009325 -0.006358 -0.028800
v 0.008824 -0.007037 -0.028800
v 0.010506 -0.004123 -0.028800
v 0.010169 -0.004897 -0.028800
v 0.010785 -0.003326 -0.028800
v 0.011160 0.001682 -0.028800
v 0.011254 0.000843 -0.028800
v 0.007677 0.008274 -0.028800
v 0.007037 0.008824 -0.028800
v -0.000000 0.011286 -0.028800
v 0.000843 0.011254 -0.028800
v -0.001682 0.011160 -0.028800
v -0.000843 0.011254 -0.028800
v -0.004123 0.010506 -0.028800
v -0.011286 -0.000000 -0.028800
v -0.011254 0.000843 -0.028800
v -0.011254 -0.000843 -0.028800
v 0.009774 -0.005643 -0.028800
v 0.011286 -0.000000 -0.028800
v 0.011254 -0.000843 -0.028800
v 0.004123 0.010506 -0.028800
v 0.004897 0.010169 -0.028800
v 0.002511 0.011003 -0.028800
v 0.003326 0.010785 -0.028800
v 0.001682 0.011160 -0.028800
v -0.011003 -0.002511 -0.028800
v -0.000843 0.011254 -0.020800
v -0.001682 0.011160 -0.020800
v -0.002511 0.011003 -0.020800
v -0.003326 0.010785 -0.020800
v -0.004123 0.010506 -0.020800
v -0.004897 0.010169 -0.020800
v -0.005643 0.009774 -0.020800
v -0.006358 0.009325 -0.020800
v -0.007037 0.008824 -0.020800
v -0.007677 0.008274 -0.020800
v -0.008274 0.007677 -0.020800
v -0.008824 0.007037 -0.020800
v -0.009325 0.006358 -0.020800
v -0.009774 0.005643 -0.020800
v -0.010169 0.004897 -0.020800
v -0.010506 0.004123 -0.020800
v -0.010785 0.003326 -0.020800
v -0.011003 0.002511 -0.020800
v -0.011160 0.001682 -0.020800
v -0.011254 0.000843 -0.020800
v -0.011286 -0.000000 -0.020800
v -0.011254 -0.000843 -0.020800
v -0.011160 -0.001682 -0.020800
v -0.011003 -0.002511 -0.020800
v -0.010785 -0.003326 -0.020800
v -0.010506 -0.004123 -0.020800
v -0.010169 -0.004897 -0.020800
v -0.009774 -0.005643 -0.020800
v -0.009325 -0.006358 -0.020800
v -0.008824 -0.007037 -0.020800
v -0.008274 -0.007677 -0.020800
v -0.007677 -0.008274 -0.020800
v -0.007037 -0.008824 -0.020800
v -0.006358 -0.009325 -0.020800
v -0.005643 -0.009774 -0.020800
v -0.004897 -0.010169 -0.020800
v -0.004123 -0.010506 -0.020800
v -0.003326 -0.010785 -0.020800
v -0.002511 -0.011003 -0.020800
v -0.001682 -0.011160 -0.020800
v -0.000843 -0.011254 -0.020800
v -0.000000 -0.011286 -0.020800
v 0.000843 -0.011254 -0.020800
v 0.001682 -0.011160 -0.020800
v 0.002511 -0.011003 -0.020800
v 0.003326 -0.010785 -0.020800
v 0.004123 -0.010506 -0.020800
v 0.004897 -0.010169 -0.020800
v 0.005643 -0.009774 -0.020800
v 0.006358 -0.009325 -0.020800
v 0.007037 -0.008824 -0.020800
v 0.007677 -0.008274 -0.020800
v 0.008274 -0.007677 -0.020800
v 0.008824 -0.007037 -0.020800
v 0.009325 -0.006358 -0.020800
v 0.009774 -0.005643 -0.020800
v 0.010169 -0.004897 -0.020800
v 0.010506 -0.004123 -0.020800
v 0.010785 -0.003326 -0.020800
v 0.011003 -0.002511 -0.020800
v 0.011160 -0.001682 -0.020800
v 0.011254 -0.000843 -0.020800
v 0.011286 -0.000000 -0.020800
v 0.011254 0.000843 -0.020800
v 0.011160 0.001682 -0.020800
v 0.011003 0.002511 -0.020800
v 0.010785 0.003326 -0.020800
v 0.010506 0.004123 -0.020800
v 0.010169 0.004897 -0.020800
v 0.009774 0.005643 -0.020800
v 0.009325 0.006358 -0.020800
v 0.008824 0.007037 -0.020800
v 0.008274 0.007677 -0.020800
v 0.007677 0.008274 -0.020800
v 0.007037 0.008824 -0.020800
v 0.006358 0.009325 -0.020800
v 0.005643 0.009774 -0.020800
v 0.004897 0.010169 -0.020800
v 0.004123 0.010506 -0.020800
v 0.003326 0.010785 -0.020800
v 0.002511 0.011003 -0.020800
v 0.001682 0.011160 -0.020800
v 0.000843 0.011254 -0.020800
v -0.000000 0.011286 -0.020800
v -0.013291 0.013876 -0.020800
v -0.013026 0.013969 -0.020800
v -0.013876 0.013291 -0.020800
v -0.013727 0.013529 -0.020800
v -0.013529 -0.013727 -0.020800
v -0.013727 -0.013529 -0.020800
v -0.013026 -0.013969 -0.020800
v -0.013529 0.013727 -0.020800
v -0.013969 0.013026 -0.020800
v 0.013529 0.013727 -0.020800
v 0.013727 0.013529 -0.020800
v 0.013026 0.013969 -0.020800
v 0.013969 0.013026 -0.020800
v 0.014000 0.012748 -0.020800
v 0.013291 -0.013876 -0.020800
v 0.013026 -0.013969 -0.020800
v 0.013969 -0.013026 -0.020800
v 0.013876 -0.013291 -0.020800
v -0.013876 -0.013291 -0.020800
v -0.013291 -0.013876 -0.020800
v -0.014000 0.012748 -0.020800
v 0.013876 0.013291 -0.020800
v 0.013291 0.013876 -0.020800
v 0.014000 -0.012748 -0.020800
v 0.013529 -0.013727 -0.020800
v 0.013727 -0.013529 -0.020800
v 0.012748 -0.014000 -0.020800
v -0.012748 -0.014000 -0.020800
v 0.012748 0.014000 -0.020800
v -0.013969 -0.013026 -0.020800
v -0.012748 0.014000 -0.020800
v -0.014000 -0.012748 -0.020800
v 0.013026 -0.013969 -0.008000
v 0.013291 -0.013876 -0.008000
v 0.013529 -0.013727 -0.008000
v 0.013727 -0.013529 -0.008000
v 0.013876 -0.013291 -0.008000
v 0.013969 -0.013026 -0.008000
v 0.014000 -0.012748 -0.008000
v 0.012748 -0.014000 -0.008000
v -0.012748 -0.014000 -0.008000
v -0.013969 -0.013026 -0.008000
v -0.013876 -0.013291 -0.008000
v -0.013727 -0.013529 -0.008000
v -0.013529 -0.013727 -0.008000
v -0.013291 -0.013876 -0.008000
v -0.013026 -0.013969 -0.008000
v -0.014000 -0.012748 -0.008000
v -0.014000 0.012748 -0.008000
v -0.013026 0.013969 -0.008000
v -0.013291 0.013876 -0.008000
v -0.013529 0.013727 -0.008000
v -0.013727 0.013529 -0.008000
v -0.013876 0.013291 -0.008000
v -0.013969 0.013026 -0.008000
v -0.012748 0.014000 -0.008000
v 0.012748 0.014000 -0.008000
v 0.013969 0.013026 -0.008000
v 0.013876 0.013291 -0.008000
v 0.013727 0.013529 -0.008000
v 0.013529 0.013727 -0.008000
v 0.013291 0.013876 -0.008000
v 0.013026 0.013969 -0.008000
v 0.014000 0.012748 -0.008000
v 0.014315 -0.022000 -0.008000
v 0.015683 -0.019246 -0.008000
v 0.016025 -0.019454 -0.008000
v 0.015378 -0.018985 -0.008000
v 0.014315 0.014313 -0.008000
v 0.014662 -0.016780 -0.008000
v 0.014630 -0.017179 -0.008000
v 0.022000 0.014313 -0.008000
v 0.022000 -0.017380 -0.008000
v 0.019458 -0.016020 -0.008000
v 0.019687 -0.021299 -0.008000
v 0.018343 -0.019454 -0.008000
v 0.018685 -0.019246 -0.008000
v 0.015118 -0.018680 -0.008000
v 0.014755 -0.017969 -0.008000
v 0.014909 -0.018338 -0.008000
v 0.014662 -0.017579 -0.008000
v 0.014755 -0.016390 -0.008000
v 0.019612 -0.016390 -0.008000
v 0.020122 -0.021002 -0.008000
v 0.019223 -0.021547 -0.008000
v 0.018735 -0.021743 -0.008000
v 0.017973 -0.019608 -0.008000
v 0.015118 -0.015678 -0.008000
v 0.014909 -0.016020 -0.008000
v 0.015683 -0.015114 -0.008000
v 0.015378 -0.015374 -0.008000
v 0.017583 -0.014658 -0.008000
v 0.017184 -0.014626 -0.008000
v 0.019250 -0.015678 -0.008000
v 0.021679 -0.018919 -0.008000
v 0.021462 -0.019399 -0.008000
v 0.019458 -0.018338 -0.008000
v 0.020880 -0.020274 -0.008000
v 0.020521 -0.020658 -0.008000
v 0.018990 -0.018985 -0.008000
v 0.016784 -0.014658 -0.008000
v 0.017973 -0.014751 -0.008000
v 0.018685 -0.015114 -0.008000
v 0.018343 -0.014905 -0.008000
v 0.018990 -0.015374 -0.008000
v 0.021950 -0.017904 -0.008000
v 0.019706 -0.017579 -0.008000
v 0.021842 -0.018419 -0.008000
v 0.019612 -0.017969 -0.008000
v 0.021195 -0.019853 -0.008000
v 0.019250 -0.018680 -0.008000
v 0.016394 -0.014751 -0.008000
v 0.016025 -0.014905 -0.008000
v 0.019737 -0.017179 -0.008000
v 0.019706 -0.016780 -0.008000
v 0.018228 -0.021886 -0.008000
v 0.017583 -0.019702 -0.008000
v 0.017709 -0.021971 -0.008000
v 0.017184 -0.022000 -0.008000
v 0.017184 -0.019733 -0.008000
v 0.016394 -0.019608 -0.008000
v 0.016784 -0.019702 -0.008000
v -0.020880 -0.020274 -0.008000
v -0.019250 -0.018680 -0.008000
v -0.018990 -0.018985 -0.008000
v -0.019687 -0.021299 -0.008000
v -0.020122 -0.021002 -0.008000
v -0.018685 -0.019246 -0.008000
v -0.020521 -0.020658 -0.008000
v -0.021195 -0.019853 -0.008000
v -0.021462 -0.019399 -0.008000
v -0.019458 -0.018338 -0.008000
v -0.022000 0.014313 -0.008000
v -0.018228 -0.021886 -0.008000
v -0.018735 -0.021743 -0.008000
v -0.017973 -0.019608 -0.008000
v -0.019223 -0.021547 -0.008000
v -0.018343 -0.019454 -0.008000
v -0.019250 -0.015678 -0.008000
v -0.019458 -0.016020 -0.008000
v -0.018343 -0.014905 -0.008000
v -0.017709 -0.021971 -0.008000
v -0.017583 -0.019702 -0.008000
v -0.017184 -0.019733 -0.008000
v -0.018990 -0.015374 -0.008000
v -0.017184 -0.022000 -0.008000
v -0.016025 -0.019454 -0.008000
v -0.021679 -0.018919 -0.008000
v -0.019612 -0.017969 -0.008000
v -0.018685 -0.015114 -0.008000
v -0.015683 -0.019246 -0.008000
v -0.014909 -0.016020 -0.008000
v -0.015118 -0.015678 -0.008000
v -0.021842 -0.018419 -0.008000
v -0.021950 -0.017904 -0.008000
v -0.019706 -0.017579 -0.008000
v -0.022000 -0.017380 -0.008000
v -0.019737 -0.017179 -0.008000
v -0.014909 -0.018338 -0.008000
v -0.016394 -0.019608 -0.008000
v -0.014630 -0.017179 -0.008000
v -0.014662 -0.016780 -0.008000
v -0.014755 -0.016390 -0.008000
v -0.015378 -0.015374 -0.008000
v -0.015683 -0.015114 -0.008000
v -0.017184 -0.014626 -0.008000
v -0.017583 -0.014658 -0.008000
v -0.016784 -0.014658 -0.008000
v -0.019612 -0.016390 -0.008000
v -0.019706 -0.016780 -0.008000
v -0.015118 -0.018680 -0.008000
v -0.015378 -0.018985 -0.008000
v -0.016784 -0.019702 -0.008000
v -0.014662 -0.017579 -0.008000
v -0.014755 -0.017969 -0.008000
v -0.016025 -0.014905 -0.008000
v -0.016394 -0.014751 -0.008000
v -0.017973 -0.014751 -0.008000
v -0.018228 0.021886 -0.008000
v -0.017583 0.019702 -0.008000
v -0.017973 0.019608 -0.008000
v -0.020880 0.020274 -0.008000
v -0.020521 0.020658 -0.008000
v -0.018990 0.018985 -0.008000
v -0.018735 0.021743 -0.008000
v -0.017709 0.021971 -0.008000
v -0.017184 0.022000 -0.008000
v -0.017184 0.019733 -0.008000
v -0.015386 0.022000 -0.008000
v -0.016394 0.019608 -0.008000
v -0.016784 0.019702 -0.008000
v -0.021195 0.019853 -0.008000
v -0.019250 0.018680 -0.008000
v -0.019458 0.018338 -0.008000
v -0.019687 0.021299 -0.008000
v -0.018343 0.019454 -0.008000
v -0.018685 0.019246 -0.008000
v -0.016025 0.019454 -0.008000
v -0.020122 0.021002 -0.008000
v -0.019223 0.021547 -0.008000
v -0.015051 0.022000 -0.008000
v -0.015683 0.019246 -0.008000
v 0.014315 0.022000 -0.008000
v -0.015118 0.018680 -0.008000
v -0.015378 0.018985 -0.008000
v -0.019458 0.016020 -0.008000
v -0.019250 0.015678 -0.008000
v -0.022000 0.017380 -0.008000
v -0.021950 0.017904 -0.008000
v -0.019706 0.017579 -0.008000
v -0.021842 0.018419 -0.008000
v -0.019612 0.017969 -0.008000
v -0.021679 0.018919 -0.008000
v -0.021462 0.019399 -0.008000
v -0.018685 0.015114 -0.008000
v -0.018343 0.014905 -0.008000
v -0.018990 0.015374 -0.008000
v -0.019706 0.016780 -0.008000
v -0.017973 0.014751 -0.008000
v -0.017583 0.014658 -0.008000
v -0.019737 0.017179 -0.008000
v -0.014662 0.017579 -0.008000
v -0.014755 0.017969 -0.008000
v -0.016025 0.014905 -0.008000
v -0.015683 0.015114 -0.008000
v -0.019612 0.016390 -0.008000
v -0.014909 0.018338 -0.008000
v -0.016394 0.014751 -0.008000
v -0.017184 0.014626 -0.008000
v -0.014630 0.017179 -0.008000
v -0.014909 0.016020 -0.008000
v -0.014755 0.016390 -0.008000
v -0.015378 0.015374 -0.008000
v -0.016784 0.014658 -0.008000
v -0.014662 0.016780 -0.008000
v -0.015118 0.015678 -0.008000
v 0.021679 0.018919 -0.008000
v 0.019612 0.017969 -0.008000
v 0.019458 0.018338 -0.008000
v 0.014662 0.017579 -0.008000
v 0.014630 0.017179 -0.008000
v 0.021462 0.019399 -0.008000
v 0.021842 0.018419 -0.008000
v 0.021950 0.017904 -0.008000
v 0.019706 0.017579 -0.008000
v 0.022000 0.017380 -0.008000
v 0.019737 0.017179 -0.008000
v 0.014662 0.016780 -0.008000
v 0.014755 0.016390 -0.008000
v 0.019706 0.016780 -0.008000
v 0.019612 0.016390 -0.008000
v 0.014909 0.018338 -0.008000
v 0.014755 0.017969 -0.008000
v 0.019687 0.021299 -0.008000
v 0.020122 0.021002 -0.008000
v 0.018685 0.019246 -0.008000
v 0.020880 0.020274 -0.008000
v 0.019250 0.018680 -0.008000
v 0.018990 0.018985 -0.008000
v 0.019458 0.016020 -0.008000
v 0.015683 0.015114 -0.008000
v 0.016025 0.014905 -0.008000
v 0.019223 0.021547 -0.008000
v 0.018343 0.019454 -0.008000
v 0.017973 0.019608 -0.008000
v 0.020521 0.020658 -0.008000
v 0.021195 0.019853 -0.008000
v 0.015378 0.015374 -0.008000
v 0.014909 0.016020 -0.008000
v 0.018228 0.021886 -0.008000
v 0.018735 0.021743 -0.008000
v 0.017973 0.014751 -0.008000
v 0.018343 0.014905 -0.008000
v 0.015118 0.015678 -0.008000
v 0.015118 0.018680 -0.008000
v 0.017184 0.022000 -0.008000
v 0.016784 0.019702 -0.008000
v 0.016394 0.019608 -0.008000
v 0.017709 0.021971 -0.008000
v 0.017583 0.019702 -0.008000
v 0.017184 0.019733 -0.008000
v 0.019250 0.015678 -0.008000
v 0.018685 0.015114 -0.008000
v 0.015683 0.019246 -0.008000
v 0.015378 0.018985 -0.008000
v 0.018990 0.015374 -0.008000
v 0.016025 0.019454 -0.008000
v 0.017184 0.014626 -0.008000
v 0.017583 0.014658 -0.008000
v 0.016394 0.014751 -0.008000
v 0.016784 0.014658 -0.008000
v 0.017709 -0.021971 -0.000000
v 0.018228 -0.021886 -0.000000
v 0.018735 -0.021743 -0.000000
v 0.019223 -0.021547 -0.000000
v 0.019687 -0.021299 -0.000000
v 0.020122 -0.021002 -0.000000
v 0.020521 -0.020658 -0.000000
v 0.020880 -0.020274 -0.000000
v 0.021195 -0.019853 -0.000000
v 0.021462 -0.019399 -0.000000
v 0.021679 -0.018919 -0.000000
v 0.021842 -0.018419 -0.000000
v 0.021950 -0.017904 -0.000000
v 0.022000 -0.017380 -0.000000
v 0.017184 -0.022000 -0.000000
v -0.022000 -0.017380 0.000000
v -0.019223 -0.021547 0.000000
v -0.018735 -0.021743 0.000000
v -0.020122 -0.021002 0.000000
v -0.019687 -0.021299 0.000000
v -0.021195 -0.019853 0.000000
v -0.020880 -0.020274 0.000000
v -0.021679 -0.018919 0.000000
v -0.021462 -0.019399 0.000000
v -0.021950 -0.017904 0.000000
v -0.017184 0.022000 0.000000
v -0.021195 0.019853 0.000000
v -0.021462 0.019399 0.000000
v -0.020122 0.021002 0.000000
v -0.018735 0.021743 0.000000
v -0.019223 0.021547 0.000000
v 0.019687 0.021299 -0.000000
v 0.018228 0.021886 -0.000000
v 0.017709 0.021971 -0.000000
v 0.019223 0.021547 -0.000000
v 0.017184 0.022000 -0.000000
v 0.021842 0.018419 -0.000000
v 0.021679 0.018919 -0.000000
v -0.018228 -0.021886 0.000000
v -0.017709 -0.021971 0.000000
v -0.021842 -0.018419 0.000000
v -0.020880 0.020274 0.000000
v -0.020521 0.020658 0.000000
v -0.018228 0.021886 0.000000
v -0.017709 0.021971 0.000000
v 0.018735 0.021743 -0.000000
v 0.020521 0.020658 -0.000000
v 0.020122 0.021002 -0.000000
v 0.021950 0.017904 -0.000000
v -0.021679 0.018919 0.000000
v -0.021842 0.018419 0.000000
v 0.021462 0.019399 -0.000000
v 0.021195 0.019853 -0.000000
v 0.022000 0.017380 -0.000000
v -0.020521 -0.020658 0.000000
v -0.017184 -0.022000 0.000000
v -0.022000 0.017380 0.000000
v -0.021950 0.017904 0.000000
v -0.019687 0.021299 0.000000
v 0.020880 0.020274 -0.000000
v -0.015386 0.022000 0.000000
v -0.015051 0.022000 0.000000
v 0.017184 0.019733 -0.012000
v 0.016784 0.019702 -0.012000
v 0.016394 0.019608 -0.012000
v 0.016025 0.019454 -0.012000
v 0.015683 0.019246 -0.012000
v 0.015378 0.018985 -0.012000
v 0.015118 0.018680 -0.012000
v 0.014909 0.018338 -0.012000
v 0.014755 0.017969 -0.012000
v 0.014662 0.017579 -0.012000
v 0.014630 0.017179 -0.012000
v 0.014662 0.016780 -0.012000
v 0.014755 0.016390 -0.012000
v 0.014909 0.016020 -0.012000
v 0.015118 0.015678 -0.012000
v 0.015378 0.015374 -0.012000
v 0.015683 0.015114 -0.012000
v 0.016025 0.014905 -0.012000
v 0.016394 0.014751 -0.012000
v 0.016784 0.014658 -0.012000
v 0.017184 0.014626 -0.012000
v 0.017583 0.014658 -0.012000
v 0.017973 0.014751 -0.012000
v 0.018343 0.014905 -0.012000
v 0.018685 0.015114 -0.012000
v 0.018990 0.015374 -0.012000
v 0.019250 0.015678 -0.012000
v 0.019458 0.016020 -0.012000
v 0.019612 0.016390 -0.012000
v 0.019706 0.016780 -0.012000
v 0.019737 0.017179 -0.012000
v 0.019706 0.017579 -0.012000
v 0.019612 0.017969 -0.012000
v 0.019458 0.018338 -0.012000
v 0.019250 0.018680 -0.012000
v 0.018990 0.018985 -0.012000
v 0.018685 0.019246 -0.012000
v 0.018343 0.019454 -0.012000
v 0.017973 0.019608 -0.012000
v 0.017583 0.019702 -0.012000
v -0.017184 0.019733 -0.012000
v -0.017583 0.019702 -0.012000
v -0.017973 0.019608 -0.012000
v -0.018343 0.019454 -0.012000
v -0.018685 0.019246 -0.012000
v -0.018990 0.018985 -0.012000
v -0.019250 0.018680 -0.012000
v -0.019458 0.018338 -0.012000
v -0.019612 0.017969 -0.012000
v -0.019706 0.017579 -0.012000
v -0.019737 0.017179 -0.012000
v -0.019706 0.016780 -0.012000
v -0.019612 0.016390 -0.012000
v -0.019458 0.016020 -0.012000
v -0.019250 0.015678 -0.012000
v -0.018990 0.015374 -0.012000
v -0.018685 0.015114 -0.012000
v -0.018343 0.014905 -0.012000
v -0.017973 0.014751 -0.012000
v -0.017583 0.014658 -0.012000
v -0.017184 0.014626 -0.012000
v -0.016784 0.014658 -0.012000
v -0.016394 0.014751 -0.012000
v -0.016025 0.014905 -0.012000
v -0.015683 0.015114 -0.012000
v -0.015378 0.015374 -0.012000
v -0.015118 0.015678 -0.012000
v -0.014909 0.016020 -0.012000
v -0.014755 0.016390 -0.012000
v -0.014662 0.016780 -0.012000
v -0.014630 0.017179 -0.012000
v -0.014662 0.017579 -0.012000
v -0.014755 0.017969 -0.012000
v -0.014909 0.018338 -0.012000
v -0.015118 0.018680 -0.012000
v -0.015378 0.018985 -0.012000
v -0.015683 0.019246 -0.012000
v -0.016025 0.019454 -0.012000
v -0.016394 0.019608 -0.012000
v -0.016784 0.019702 -0.012000
v -0.017184 -0.014626 -0.012000
v -0.017583 -0.014658 -0.012000
v -0.017973 -0.014751 -0.012000
v -0.018343 -0.014905 -0.012000
v -0.018685 -0.015114 -0.012000
v -0.018990 -0.015374 -0.012000
v -0.019250 -0.015678 -0.012000
v -0.019458 -0.016020 -0.012000
v -0.019612 -0.016390 -0.012000
v -0.019706 -0.016780 -0.012000
v -0.019737 -0.017179 -0.012000
v -0.019706 -0.017579 -0.012000
v -0.019612 -0.017969 -0.012000
v -0.019458 -0.018338 -0.012000
v -0.019250 -0.018680 -0.012000
v -0.018990 -0.018985 -0.012000
v -0.018685 -0.019246 -0.012000
v -0.018343 -0.019454 -0.012000
v -0.017973 -0.019608 -0.012000
v -0.017583 -0.019702 -0.012000
v -0.017184 -0.019733 -0.012000
v -0.016784 -0.019702 -0.012000
v -0.016394 -0.019608 -0.012000
v -0.016025 -0.019454 -0.012000
v -0.015683 -0.019246 -0.012000
v -0.015378 -0.018985 -0.012000
v -0.015118 -0.018680 -0.012000
v -0.014909 -0.018338 -0.012000
v -0.014755 -0.017969 -0.012000
v -0.014662 -0.017579 -0.012000
v -0.014630 -0.017179 -0.012000
v -0.014662 -0.016780 -0.012000
v -0.014755 -0.016390 -0.012000
v -0.014909 -0.016020 -0.012000
v -0.015118 -0.015678 -0.012000
v -0.015378 -0.015374 -0.012000
v -0.015683 -0.015114 -0.012000
v -0.016025 -0.014905 -0.012000
v -0.016394 -0.014751 -0.012000
v -0.016784 -0.014658 -0.012000
v 0.017184 -0.014626 -0.012000
v 0.016784 -0.014658 -0.012000
v 0.016394 -0.014751 -0.012000
v 0.016025 -0.014905 -0.012000
v 0.015683 -0.015114 -0.012000
v 0.015378 -0.015374 -0.012000
v 0.015118 -0.015678 -0.012000
v 0.014909 -0.016020 -0.012000
v 0.014755 -0.016390 -0.012000
v 0.014662 -0.016780 -0.012000
v 0.014630 -0.017179 -0.012000
v 0.014662 -0.017579 -0.012000
v 0.014755 -0.017969 -0.012000
v 0.014909 -0.018338 -0.012000
v 0.015118 -0.018680 -0.012000
v 0.015378 -0.018985 -0.012000
v 0.015683 -0.019246 -0.012000
v 0.016025 -0.019454 -0.012000
v 0.016394 -0.019608 -0.012000
v 0.016784 -0.019702 -0.012000
v 0.017184 -0.019733 -0.012000
v 0.017583 -0.019702 -0.012000
v 0.017973 -0.019608 -0.012000
v 0.018343 -0.019454 -0.012000
v 0.018685 -0.019246 -0.012000
v 0.018990 -0.018985 -0.012000
v 0.019250 -0.018680 -0.012000
v 0.019458 -0.018338 -0.012000
v 0.019612 -0.017969 -0.012000
v 0.019706 -0.017579 -0.012000
v 0.019737 -0.017179 -0.012000
v 0.019706 -0.016780 -0.012000
v 0.019612 -0.016390 -0.012000
v 0.019458 -0.016020 -0.012000
v 0.019250 -0.015678 -0.012000
v 0.018990 -0.015374 -0.012000
v 0.018685 -0.015114 -0.012000
v 0.018343 -0.014905 -0.012000
v 0.017973 -0.014751 -0.012000
v 0.017583 -0.014658 -0.012000
usemtl 
s off
f 1 2 3
f 4 5 6
f 7 8 9
f 1 10 2
f 6 11 4
f 4 12 13
f 7 14 15
f 9 16 7
f 12 17 18
f 12 19 20
f 12 21 22
f 12 4 23
f 11 1 4
f 13 24 4
f 7 25 26
f 7 27 28
f 15 29 7
f 7 30 8
f 7 31 32
f 12 33 34
f 12 35 36
f 12 37 38
f 12 39 40
f 12 41 42
f 12 43 44
f 12 45 17
f 12 46 19
f 12 47 48
f 12 49 50
f 12 51 52
f 23 21 12
f 24 5 4
f 28 25 7
f 29 53 7
f 32 30 7
f 7 54 55
f 36 33 12
f 12 56 57
f 40 37 12
f 42 58 12
f 12 59 60
f 12 61 62
f 44 63 12
f 12 64 65
f 20 45 12
f 12 66 47
f 50 67 12
f 12 68 69
f 12 70 71
f 12 72 51
f 1 3 4
f 54 73 74
f 54 7 75
f 53 27 7
f 55 31 7
f 57 35 12
f 58 39 12
f 12 76 59
f 63 61 12
f 12 77 78
f 18 64 12
f 67 66 12
f 12 79 80
f 12 81 82
f 71 68 12
f 22 72 12
f 75 73 54
f 16 14 7
f 38 56 12
f 62 76 12
f 65 77 12
f 80 49 12
f 12 83 81
f 52 70 12
f 26 84 7
f 60 41 12
f 48 46 12
f 69 83 12
f 34 54 12
f 82 79 12
f 78 43 12
f 74 12 54
f 68 71 85
f 71 70 86
f 70 52 87
f 52 51 88
f 51 72 89
f 72 22 90
f 22 21 91
f 21 23 92
f 23 4 93
f 4 3 94
f 3 2 95
f 2 10 96
f 10 1 97
f 1 11 98
f 11 6 99
f 6 5 100
f 5 24 101
f 24 13 102
f 13 12 103
f 12 74 104
f 74 73 105
f 73 75 106
f 75 7 107
f 7 84 108
f 84 26 109
f 26 25 110
f 25 28 111
f 28 27 112
f 27 53 113
f 53 29 114
f 29 15 115
f 15 14 116
f 14 16 117
f 16 9 118
f 9 8 119
f 8 30 120
f 30 32 121
f 32 31 122
f 31 55 123
f 55 54 124
f 54 34 125
f 34 33 126
f 33 36 127
f 36 35 128
f 35 57 129
f 57 56 130
f 56 38 131
f 38 37 132
f 37 40 133
f 40 39 134
f 39 58 135
f 58 42 136
f 42 41 137
f 41 60 138
f 60 59 139
f 59 76 140
f 76 62 141
f 62 61 142
f 61 63 143
f 63 44 144
f 44 43 145
f 43 78 146
f 78 77 147
f 77 65 148
f 65 64 149
f 64 18 150
f 18 17 151
f 17 45 152
f 45 20 153
f 20 19 154
f 19 46 155
f 46 48 156
f 48 47 157
f 47 66 158
f 66 67 159
f 67 50 160
f 50 49 161
f 49 80 162
f 80 79 163
f 79 82 164
f 82 81 165
f 81 83 166
f 83 69 167
f 69 68 168
f 168 167 69
f 167 166 83
f 166 165 81
f 165 164 82
f 164 163 79
f 163 162 80
f 162 161 49
f 161 160 50
f 160 159 67
f 159 158 66
f 158 157 47
f 157 156 48
f 156 155 46
f 155 154 19
f 154 153 20
f 153 152 45
f 152 151 17
f 151 150 18
f 150 149 64
f 149 148 65
f 148 147 77
f 147 146 78
f 146 145 43
f 145 144 44
f 144 143 63
f 143 142 61
f 142 141 62
f 141 140 76
f 140 139 59
f 139 138 60
f 138 137 41
f 137 136 42
f 136 135 58
f 135 134 39
f 134 133 40
f 133 132 37
f 132 131 38
f 131 130 56
f 130 129 57
f 129 128 35
f 128 127 36
f 127 126 33
f 126 125 34
f 125 124 54
f 124 123 55
f 123 122 31
f 122 121 32
f 121 120 30
f 120 119 8
f 119 118 9
f 118 117 16
f 117 116 14
f 116 115 15
f 115 114 29
f 114 113 53
f 113 112 27
f 112 111 28
f 111 110 25
f 110 109 26
f 109 108 84
f 108 107 7
f 107 106 75
f 106 105 73
f 105 104 74
f 104 103 12
f 103 102 13
f 102 101 24
f 101 100 5
f 100 99 6
f 99 98 11
f 1 98 97
f 97 96 10
f 96 95 2
f 95 94 3
f 94 93 4
f 93 92 23
f 92 91 21
f 91 90 22
f 90 89 72
f 89 88 51
f 88 87 52
f 87 86 70
f 86 85 71
f 85 168 68
f 95 169 170
f 95 171 172
f 115 173 174
f 115 116 175
f 95 176 169
f 95 177 171
f 157 178 179
f 157 158 180
f 157 181 182
f 182 151 152
f 137 183 184
f 137 185 186
f 174 187 115
f 175 188 115
f 189 96 97
f 95 96 189
f 172 176 95
f 179 190 157
f 180 191 157
f 182 155 156
f 182 150 151
f 182 148 149
f 182 192 147
f 192 141 142
f 192 139 140
f 137 193 183
f 186 194 137
f 195 129 130
f 116 117 196
f 188 173 115
f 189 100 101
f 97 98 189
f 170 94 95
f 158 159 197
f 191 178 157
f 182 154 155
f 149 150 182
f 192 146 147
f 142 143 192
f 192 138 139
f 137 138 192
f 194 193 137
f 136 184 195
f 195 133 134
f 130 131 195
f 196 118 119
f 187 198 115
f 189 99 100
f 189 177 95
f 199 90 91
f 199 88 89
f 190 181 157
f 182 153 154
f 147 148 182
f 140 141 192
f 184 136 137
f 134 135 195
f 131 132 195
f 196 123 124
f 196 121 122
f 119 120 196
f 196 175 116
f 115 198 200
f 200 111 112
f 189 102 103
f 98 99 189
f 94 170 199
f 89 90 199
f 199 168 85
f 197 160 161
f 197 180 158
f 152 153 182
f 192 144 145
f 192 185 137
f 132 133 195
f 195 127 128
f 195 196 126
f 124 125 196
f 120 121 196
f 200 114 115
f 112 113 200
f 200 108 109
f 101 102 189
f 199 92 93
f 199 87 88
f 85 86 199
f 197 167 168
f 159 160 197
f 145 146 192
f 195 135 136
f 126 127 195
f 122 123 196
f 113 114 200
f 109 110 200
f 200 106 107
f 200 189 105
f 199 93 94
f 86 87 199
f 197 166 167
f 182 156 157
f 128 129 195
f 117 118 196
f 107 108 200
f 189 104 105
f 91 92 199
f 197 165 166
f 197 162 163
f 143 144 192
f 110 111 200
f 103 104 189
f 197 164 165
f 161 162 197
f 105 106 200
f 163 164 197
f 168 199 197
f 125 126 196
f 195 184 201
f 184 183 202
f 183 193 203
f 193 194 204
f 194 186 205
f 186 185 206
f 185 192 207
f 207 206 185
f 206 205 186
f 205 204 194
f 204 203 193
f 203 202 183
f 202 201 184
f 201 208 195
f 196 195 208
f 208 209 196
f 200 198 210
f 198 187 211
f 187 174 212
f 174 173 213
f 173 188 214
f 188 175 215
f 175 196 209
f 209 215 175
f 215 214 188
f 214 213 173
f 213 212 174
f 212 211 187
f 211 210 198
f 210 216 200
f 189 200 216
f 216 217 189
f 199 170 218
f 170 169 219
f 169 176 220
f 176 172 221
f 172 171 222
f 171 177 223
f 177 189 217
f 217 223 177
f 223 222 171
f 222 221 172
f 221 220 176
f 220 219 169
f 219 218 170
f 218 224 199
f 197 199 224
f 224 225 197
f 182 181 226
f 181 190 227
f 190 179 228
f 179 178 229
f 178 191 230
f 191 180 231
f 180 197 225
f 225 231 180
f 231 230 191
f 230 229 178
f 229 228 179
f 228 227 190
f 227 226 181
f 226 232 182
f 192 182 232
f 232 207 192
f 233 234 235
f 233 236 234
f 237 238 239
f 240 241 242
f 243 244 245
f 233 246 236
f 233 247 248
f 233 239 249
f 239 233 237
f 237 250 238
f 241 251 242
f 245 252 243
f 253 254 255
f 248 246 233
f 237 256 257
f 237 258 259
f 240 260 261
f 242 262 240
f 263 264 265
f 266 267 268
f 252 245 268
f 255 244 253
f 249 247 233
f 259 256 237
f 237 261 269
f 240 270 260
f 240 271 272
f 262 273 240
f 241 274 275
f 276 277 275
f 277 276 263
f 278 279 265
f 279 278 266
f 243 253 244
f 257 250 237
f 237 280 281
f 261 237 240
f 273 271 240
f 241 282 283
f 275 274 276
f 265 264 278
f 268 267 252
f 281 258 237
f 272 270 240
f 275 282 241
f 268 279 266
f 284 285 255
f 269 280 237
f 265 277 263
f 255 254 284
f 286 287 288
f 287 233 289
f 283 251 241
f 288 285 286
f 289 290 287
f 284 286 285
f 235 289 233
f 291 292 293
f 294 295 296
f 293 297 291
f 298 299 300
f 301 217 216
f 302 303 304
f 305 306 304
f 306 305 294
f 295 297 293
f 300 292 298
f 301 307 308
f 216 309 301
f 310 311 312
f 311 310 302
f 296 306 294
f 291 298 292
f 301 313 307
f 301 223 217
f 233 314 315
f 304 311 302
f 293 296 295
f 316 317 300
f 301 318 313
f 216 210 309
f 237 207 232
f 233 206 207
f 315 319 233
f 214 320 321
f 304 303 305
f 300 299 316
f 322 323 324
f 325 326 324
f 309 318 301
f 207 237 233
f 232 226 237
f 233 203 204
f 233 327 209
f 314 328 315
f 215 329 330
f 214 331 320
f 213 321 332
f 211 212 333
f 210 334 335
f 210 211 336
f 316 322 317
f 324 323 325
f 325 337 338
f 308 325 301
f 237 225 224
f 233 205 206
f 233 202 203
f 233 339 327
f 319 340 233
f 314 312 341
f 215 342 329
f 215 327 343
f 214 330 331
f 332 212 213
f 333 344 211
f 336 334 210
f 324 317 322
f 308 337 325
f 224 301 237
f 204 205 233
f 209 208 233
f 341 328 314
f 343 342 215
f 332 333 212
f 344 345 211
f 335 346 210
f 338 326 325
f 301 221 222
f 301 218 219
f 237 231 225
f 237 229 230
f 237 226 227
f 233 201 202
f 340 339 233
f 321 213 214
f 346 309 210
f 222 223 301
f 219 220 301
f 230 231 237
f 227 228 237
f 208 201 233
f 330 214 215
f 312 314 310
f 224 218 301
f 345 336 211
f 228 229 237
f 220 221 301
f 347 348 349
f 350 351 352
f 349 353 347
f 354 355 356
f 357 358 359
f 360 361 362
f 361 360 350
f 363 364 365
f 356 348 354
f 359 355 357
f 366 358 357
f 352 361 350
f 367 365 352
f 365 367 363
f 368 353 349
f 359 356 355
f 369 370 366
f 371 372 373
f 301 374 375
f 376 377 378
f 379 380 378
f 381 382 362
f 352 351 367
f 349 364 368
f 357 369 366
f 373 369 371
f 301 383 384
f 375 385 301
f 301 376 386
f 378 377 379
f 380 379 381
f 363 368 364
f 373 370 369
f 301 387 388
f 385 383 301
f 376 389 386
f 362 380 381
f 347 354 348
f 371 390 391
f 237 392 393
f 384 387 301
f 386 394 301
f 362 382 360
f 391 395 371
f 237 396 392
f 237 301 397
f 394 374 301
f 395 372 371
f 371 237 398
f 237 399 400
f 393 401 237
f 397 402 237
f 378 389 376
f 237 403 398
f 237 404 399
f 402 396 237
f 398 390 371
f 401 404 237
f 400 403 237
f 405 406 407
f 371 408 409
f 407 410 405
f 411 412 413
f 414 415 413
f 237 416 417
f 409 237 371
f 413 406 411
f 414 418 415
f 240 419 418
f 409 416 237
f 371 420 421
f 422 423 424
f 425 426 427
f 413 412 414
f 240 428 419
f 237 429 430
f 421 408 371
f 431 432 433
f 432 431 422
f 423 434 427
f 427 434 425
f 435 410 407
f 418 414 240
f 237 436 429
f 417 437 237
f 438 439 433
f 424 432 422
f 425 435 426
f 405 411 406
f 240 440 441
f 237 442 436
f 371 443 420
f 444 445 446
f 447 448 449
f 448 447 438
f 427 424 423
f 240 450 428
f 441 451 240
f 437 442 237
f 371 452 453
f 444 449 445
f 433 448 438
f 407 426 435
f 451 454 240
f 453 443 371
f 371 446 455
f 449 444 447
f 454 450 240
f 455 452 371
f 433 439 431
f 240 237 456
f 446 371 444
f 456 457 240
f 237 458 459
f 457 440 240
f 430 458 237
f 459 456 237
f 388 397 301
f 215 209 327
f 290 288 287
f 287 286 460
f 286 284 461
f 284 254 462
f 254 253 463
f 253 243 464
f 243 252 465
f 252 267 466
f 267 266 467
f 266 278 468
f 278 264 469
f 264 263 470
f 263 276 471
f 276 274 472
f 274 241 473
f 473 472 274
f 472 471 276
f 471 470 263
f 470 469 264
f 469 468 278
f 468 467 266
f 467 466 267
f 466 465 252
f 465 464 243
f 464 463 253
f 463 462 254
f 462 461 284
f 461 460 286
f 460 474 287
f 475 476 477
f 475 478 479
f 478 480 481
f 478 482 483
f 478 475 484
f 485 486 487
f 488 489 490
f 491 492 493
f 492 491 494
f 495 496 497
f 475 498 499
f 479 476 475
f 483 480 478
f 484 500 478
f 485 501 486
f 485 488 502
f 488 503 489
f 488 485 504
f 494 505 492
f 495 506 507
f 495 508 496
f 474 469 470
f 462 464 465
f 466 474 460
f 477 498 475
f 500 482 478
f 485 509 510
f 502 501 485
f 504 503 488
f 507 491 495
f 495 511 512
f 495 513 508
f 474 468 469
f 474 466 467
f 462 463 464
f 460 461 466
f 481 514 478
f 515 485 516
f 510 517 485
f 490 518 488
f 495 519 506
f 497 511 495
f 467 468 474
f 461 462 466
f 516 475 515
f 487 509 485
f 512 519 495
f 495 474 473
f 474 471 472
f 465 466 462
f 517 516 485
f 473 513 495
f 470 471 474
f 515 520 485
f 474 495 521
f 472 473 474
f 515 521 520
f 493 495 491
f 521 515 474
f 499 515 475
f 515 314 233
f 233 474 515
f 233 287 474
f 325 323 484
f 323 322 500
f 322 316 482
f 316 299 483
f 299 298 480
f 298 291 481
f 291 297 514
f 297 295 478
f 295 294 479
f 294 305 476
f 305 303 477
f 303 302 498
f 302 310 499
f 310 314 515
f 515 499 310
f 499 498 302
f 498 477 303
f 477 476 305
f 476 479 294
f 479 478 295
f 478 514 297
f 514 481 291
f 481 480 298
f 480 483 299
f 483 482 316
f 482 500 322
f 500 484 323
f 484 475 325
f 475 516 301
f 516 376 301
f 301 325 475
f 355 354 504
f 354 347 503
f 347 353 489
f 353 368 490
f 368 363 518
f 363 367 488
f 367 351 502
f 351 350 501
f 350 360 486
f 360 382 487
f 382 381 509
f 381 379 510
f 379 377 517
f 377 376 516
f 516 517 377
f 517 510 379
f 510 509 381
f 509 487 382
f 487 486 360
f 486 501 350
f 501 502 351
f 502 488 367
f 488 518 363
f 518 490 368
f 490 489 353
f 489 503 347
f 503 504 354
f 504 485 355
f 355 485 520
f 520 357 355
f 369 357 520
f 520 521 369
f 521 495 371
f 495 444 371
f 371 369 521
f 414 412 508
f 412 411 496
f 411 405 497
f 405 410 511
f 410 435 512
f 435 425 519
f 425 434 506
f 434 423 507
f 423 422 491
f 422 431 494
f 431 439 505
f 439 438 492
f 438 447 493
f 447 444 495
f 495 493 447
f 493 492 438
f 492 505 439
f 505 494 431
f 494 491 422
f 491 507 423
f 507 506 434
f 506 519 425
f 519 512 435
f 512 511 410
f 511 497 405
f 497 496 411
f 496 508 412
f 508 513 414
f 473 241 240
f 240 513 473
f 240 414 513
f 522 523 445
f 523 524 446
f 524 525 455
f 525 526 452
f 526 527 453
f 527 528 443
f 528 529 420
f 529 530 421
f 530 531 408
f 531 532 409
f 532 533 416
f 533 534 417
f 534 535 437
f 535 536 442
f 536 537 436
f 537 538 429
f 538 539 430
f 539 540 458
f 540 541 459
f 541 542 456
f 542 543 457
f 543 544 440
f 544 545 441
f 545 546 451
f 546 547 454
f 547 548 450
f 548 549 428
f 549 550 419
f 550 551 418
f 551 552 415
f 552 553 413
f 553 554 406
f 554 555 407
f 555 556 426
f 556 557 427
f 557 558 424
f 558 559 432
f 559 560 433
f 560 561 448
f 561 522 449
f 449 448 561
f 448 433 560
f 433 432 559
f 432 424 558
f 424 427 557
f 427 426 556
f 426 407 555
f 407 406 554
f 406 413 553
f 413 415 552
f 415 418 551
f 418 419 550
f 419 428 549
f 428 450 548
f 450 454 547
f 454 451 546
f 451 441 545
f 441 440 544
f 440 457 543
f 457 456 542
f 456 459 541
f 459 458 540
f 458 430 539
f 430 429 538
f 429 436 537
f 436 442 536
f 442 437 535
f 437 417 534
f 417 416 533
f 416 409 532
f 409 408 531
f 408 421 530
f 421 420 529
f 420 443 528
f 443 453 527
f 453 452 526
f 452 455 525
f 455 446 524
f 446 445 523
f 445 449 522
f 538 535 534
f 535 538 537
f 545 559 558
f 537 536 535
f 549 548 547
f 546 551 550
f 558 557 545
f 545 561 560
f 539 529 528
f 539 531 530
f 539 533 532
f 533 539 538
f 550 549 546
f 545 553 552
f 545 555 554
f 560 559 545
f 545 523 522
f 545 525 524
f 530 529 539
f 534 533 538
f 525 543 542
f 525 545 544
f 547 546 549
f 554 553 545
f 557 556 545
f 524 523 545
f 539 527 526
f 532 531 539
f 525 541 540
f 544 543 525
f 552 551 545
f 522 561 545
f 528 527 539
f 542 541 525
f 556 555 545
f 540 539 525
f 526 525 539
f 546 545 551
f 562 563 348
f 563 564 349
f 564 565 364
f 565 566 365
f 566 567 352
f 567 568 361
f 568 569 362
f 569 570 380
f 570 571 378
f 571 572 389
f 572 573 386
f 573 574 394
f 574 575 374
f 575 576 375
f 576 577 385
f 577 578 383
f 578 579 384
f 579 580 387
f 580 581 388
f 581 582 397
f 582 583 402
f 583 584 396
f 584 585 392
f 585 586 393
f 586 587 401
f 587 588 404
f 588 589 399
f 589 590 400
f 590 591 403
f 591 592 398
f 592 593 390
f 593 594 391
f 594 595 395
f 595 596 372
f 596 597 373
f 597 598 370
f 598 599 366
f 599 600 358
f 600 601 359
f 601 562 356
f 356 359 601
f 359 358 600
f 358 366 599
f 366 370 598
f 370 373 597
f 373 372 596
f 372 395 595
f 395 391 594
f 391 390 593
f 390 398 592
f 398 403 591
f 403 400 590
f 400 399 589
f 399 404 588
f 404 401 587
f 401 393 586
f 393 392 585
f 392 396 584
f 396 402 583
f 402 397 582
f 397 388 581
f 388 387 580
f 387 384 579
f 384 383 578
f 383 385 577
f 385 375 576
f 375 374 575
f 374 394 574
f 394 386 573
f 386 389 572
f 389 378 571
f 378 380 570
f 380 362 569
f 362 361 568
f 361 352 567
f 352 365 566
f 365 364 565
f 364 349 564
f 349 348 563
f 348 356 562
f 578 575 574
f 575 578 577
f 589 588 587
f 586 591 590
f 577 576 575
f 590 589 586
f 585 593 592
f 585 595 594
f 585 563 562
f 585 565 564
f 579 569 568
f 579 571 570
f 579 573 572
f 573 579 578
f 567 583 582
f 567 585 584
f 587 586 589
f 594 593 585
f 585 601 600
f 564 563 585
f 570 569 579
f 574 573 578
f 567 581 580
f 584 583 567
f 592 591 585
f 585 597 596
f 585 599 598
f 562 601 585
f 572 571 579
f 582 581 567
f 596 595 585
f 600 599 585
f 585 567 566
f 580 579 567
f 598 597 585
f 568 567 579
f 566 565 585
f 586 585 591
f 602 603 335
f 603 604 346
f 604 605 309
f 605 606 318
f 606 607 313
f 607 608 307
f 608 609 308
f 609 610 337
f 610 611 338
f 611 612 326
f 612 613 324
f 613 614 317
f 614 615 300
f 615 616 292
f 616 617 293
f 617 618 296
f 618 619 306
f 619 620 304
f 620 621 311
f 621 622 312
f 622 623 341
f 623 624 328
f 624 625 315
f 625 626 319
f 626 627 340
f 627 628 339
f 628 629 327
f 629 630 343
f 630 631 342
f 631 632 329
f 632 633 330
f 633 634 331
f 634 635 320
f 635 636 321
f 636 637 332
f 637 638 333
f 638 639 344
f 639 640 345
f 640 641 336
f 641 602 334
f 334 336 641
f 336 345 640
f 345 344 639
f 344 333 638
f 333 332 637
f 332 321 636
f 321 320 635
f 320 331 634
f 331 330 633
f 330 329 632
f 329 342 631
f 342 343 630
f 343 327 629
f 327 339 628
f 339 340 627
f 340 319 626
f 319 315 625
f 315 328 624
f 328 341 623
f 341 312 622
f 312 311 621
f 311 304 620
f 304 306 619
f 306 296 618
f 296 293 617
f 293 292 616
f 292 300 615
f 300 317 614
f 317 324 613
f 324 326 612
f 326 338 611
f 338 337 610
f 337 308 609
f 308 307 608
f 307 313 607
f 313 318 606
f 318 309 605
f 309 346 604
f 346 335 603
f 335 334 602
f 618 615 614
f 615 618 617
f 629 628 627
f 626 631 630
f 617 616 615
f 630 629 626
f 625 633 632
f 625 635 634
f 625 603 602
f 625 605 604
f 619 609 608
f 619 611 610
f 619 613 612
f 613 619 618
f 607 623 622
f 607 625 624
f 627 626 629
f 634 633 625
f 625 641 640
f 604 603 625
f 610 609 619
f 614 613 618
f 607 621 620
f 624 623 607
f 632 631 625
f 625 637 636
f 625 639 638
f 602 641 625
f 612 611 619
f 622 621 607
f 636 635 625
f 640 639 625
f 625 607 606
f 620 619 607
f 638 637 625
f 608 607 619
f 606 605 625
f 626 625 631
f 642 643 269
f 643 644 280
f 644 645 281
f 645 646 258
f 646 647 259
f 647 648 256
f 648 649 257
f 649 650 250
f 650 651 238
f 651 652 239
f 652 653 249
f 653 654 247
f 654 655 248
f 655 656 246
f 656 657 236
f 657 658 234
f 658 659 235
f 659 660 289
f 660 661 290
f 661 662 288
f 662 663 285
f 663 664 255
f 664 665 244
f 665 666 245
f 666 667 268
f 667 668 279
f 668 669 265
f 669 670 277
f 670 671 275
f 671 672 282
f 672 673 283
f 673 674 251
f 674 675 242
f 675 676 262
f 676 677 273
f 677 678 271
f 678 679 272
f 679 680 270
f 680 681 260
f 681 642 261
f 261 260 681
f 260 270 680
f 270 272 679
f 272 271 678
f 271 273 677
f 273 262 676
f 262 242 675
f 242 251 674
f 251 283 673
f 283 282 672
f 282 275 671
f 275 277 670
f 277 265 669
f 265 279 668
f 279 268 667
f 268 245 666
f 245 244 665
f 244 255 664
f 255 285 663
f 285 288 662
f 288 290 661
f 290 289 660
f 289 235 659
f 235 234 658
f 234 236 657
f 236 246 656
f 246 248 655
f 248 247 654
f 247 249 653
f 249 239 652
f 239 238 651
f 238 250 650
f 250 257 649
f 257 256 648
f 256 259 647
f 259 258 646
f 258 281 645
f 281 280 644
f 280 269 643
f 269 261 642
f 658 655 654
f 655 658 657
f 665 679 678
f 657 656 655
f 669 668 667
f 666 671 670
f 678 677 665
f 665 681 680
f 659 649 648
f 659 651 650
f 659 653 652
f 653 659 658
f 670 669 666
f 665 673 672
f 665 675 674
f 680 679 665
f 665 643 642
f 665 645 644
f 650 649 659
f 654 653 658
f 645 663 662
f 645 665 664
f 667 666 669
f 674 673 665
f 677 676 665
f 644 643 665
f 659 647 646
f 652 651 659
f 645 661 660
f 664 663 645
f 672 671 665
f 642 681 665
f 648 647 659
f 662 661 645
f 676 675 665
f 660 659 645
f 646 645 659
f 666 665 671
