# Blender MTL File: 'Cuarto_Cirugia.blend1'
# Material Count: 1

newmtl Woman_texture.png.001
Ns 92.156863
Ka 0.000000 0.000000 0.000000
Kd 0.512000 0.512000 0.512000
Ks 0.500000 0.500000 0.500000
Ni 1.000000
d 1.000000
illum 2
