# Blender v2.66 (sub 1) OBJ File: ''
# www.blender.org
mtllib MANEsofago.mtl
o Mesh.002_sdigestivo_c_jujunum-.000
v 0.016283 0.520773 -0.574150
v 0.014512 0.520395 -0.573442
v 0.013360 0.526091 -0.583850
v 0.014512 0.520395 -0.573442
v 0.009729 0.521266 -0.569608
v 0.007784 0.527707 -0.580963
v 0.006371 0.530307 -0.577179
v 0.009729 0.521266 -0.569608
v 0.007897 0.523510 -0.565644
v 0.006635 0.533352 -0.573432
v 0.007897 0.523510 -0.565644
v 0.008101 0.526332 -0.562063
v 0.009339 0.535442 -0.571227
v 0.008101 0.526332 -0.562063
v 0.010242 0.529168 -0.559558
v 0.013730 0.531297 -0.558974
v 0.013209 0.537321 -0.570750
v 0.010242 0.529168 -0.559558
v 0.013209 0.537321 -0.570750
v 0.008919 0.537304 -0.571333
v 0.009339 0.535442 -0.571227
v 0.014512 0.520395 -0.573442
v 0.011232 0.510096 -0.542992
v 0.009729 0.521266 -0.569608
v 0.016283 0.520773 -0.574150
v 0.015744 0.508675 -0.545295
v 0.014512 0.520395 -0.573442
v 0.014558 0.520537 -0.535738
v 0.013730 0.531297 -0.558974
v 0.010242 0.529168 -0.559558
v 0.008101 0.526332 -0.562063
v 0.011286 0.518589 -0.536273
v 0.010242 0.529168 -0.559558
v 0.007897 0.523510 -0.565644
v 0.009439 0.515736 -0.538052
v 0.008101 0.526332 -0.562063
v 0.009729 0.521266 -0.569608
v 0.009400 0.512703 -0.540448
v 0.007897 0.523510 -0.565644
v 0.009439 0.515736 -0.538052
v 0.012411 0.501129 -0.488435
v 0.011286 0.518589 -0.536273
v 0.009400 0.512703 -0.540448
v 0.010605 0.498100 -0.489824
v 0.009439 0.515736 -0.538052
v 0.011232 0.510096 -0.542992
v 0.010628 0.494775 -0.491544
v 0.009400 0.512703 -0.540448
v 0.015744 0.508675 -0.545295
v 0.012531 0.491816 -0.493258
v 0.011232 0.510096 -0.542992
v 0.017117 0.490019 -0.494638
v 0.015744 0.508675 -0.545295
v 0.017080 0.508829 -0.545727
v 0.015443 0.503034 -0.487912
v 0.014558 0.520537 -0.535738
v 0.011286 0.518589 -0.536273
v 0.018004 0.521011 -0.573281
v 0.016283 0.520773 -0.574150
v 0.015751 0.526432 -0.584287
v 0.018066 0.526922 -0.583633
v 0.021841 0.523401 -0.569052
v 0.018004 0.521011 -0.573281
v 0.022477 0.530296 -0.580286
v 0.022439 0.526070 -0.564975
v 0.021841 0.523401 -0.569052
v 0.022573 0.533162 -0.576434
v 0.020966 0.528599 -0.561472
v 0.022439 0.526070 -0.564975
v 0.020966 0.528599 -0.561472
v 0.020955 0.535876 -0.572774
v 0.017772 0.530496 -0.559212
v 0.017772 0.530496 -0.559212
v 0.017517 0.536883 -0.570852
v 0.013730 0.531297 -0.558974
v 0.017282 0.538778 -0.570950
v 0.013209 0.537321 -0.570750
v 0.017517 0.536883 -0.570852
v 0.021841 0.523401 -0.569052
v 0.021878 0.511971 -0.542503
v 0.018344 0.509134 -0.545176
v 0.018344 0.509134 -0.545176
v 0.017080 0.508829 -0.545727
v 0.018004 0.521011 -0.573281
v 0.018331 0.519831 -0.535949
v 0.013730 0.531297 -0.558974
v 0.014558 0.520537 -0.535738
v 0.021191 0.517807 -0.537512
v 0.017772 0.530496 -0.559212
v 0.018331 0.519831 -0.535949
v 0.020966 0.528599 -0.561472
v 0.021191 0.517807 -0.537512
v 0.022475 0.515007 -0.539846
v 0.021878 0.511971 -0.542503
v 0.022475 0.515007 -0.539846
v 0.022469 0.493569 -0.492800
v 0.022439 0.526070 -0.564975
v 0.021824 0.500075 -0.489307
v 0.018331 0.519831 -0.535949
v 0.018976 0.502286 -0.488133
v 0.021191 0.517807 -0.537512
v 0.021824 0.500075 -0.489307
v 0.023088 0.496970 -0.490971
v 0.022475 0.515007 -0.539846
v 0.023088 0.496970 -0.490971
v 0.022469 0.493569 -0.492800
v 0.021878 0.511971 -0.542503
v 0.022469 0.493569 -0.492800
v 0.018915 0.490336 -0.494555
v 0.018915 0.490336 -0.494555
v 0.018059 0.490018 -0.494908
v 0.018344 0.509134 -0.545176
v 0.018976 0.502286 -0.488133
v 0.014558 0.520537 -0.535738
v 0.015443 0.503034 -0.487912
v 0.012850 0.473527 -0.392198
v 0.015443 0.503034 -0.487912
v 0.012411 0.501129 -0.488435
v 0.015882 0.475429 -0.391667
v 0.012411 0.501129 -0.488435
v 0.011046 0.470357 -0.393100
v 0.012850 0.473527 -0.392198
v 0.010605 0.498100 -0.489824
v 0.010605 0.498100 -0.489824
v 0.011072 0.466831 -0.394112
v 0.011046 0.470357 -0.393100
v 0.010628 0.494775 -0.491544
v 0.010628 0.494775 -0.491544
v 0.012978 0.463646 -0.395033
v 0.011072 0.466831 -0.394112
v 0.012531 0.491816 -0.493258
v 0.017117 0.490019 -0.494638
v 0.012978 0.463646 -0.395033
v 0.012531 0.491816 -0.493258
v 0.017569 0.461623 -0.395635
v 0.018915 0.490336 -0.494555
v 0.022469 0.493569 -0.492800
v 0.022807 0.465345 -0.394474
v 0.022469 0.493569 -0.492800
v 0.023088 0.496970 -0.490971
v 0.023200 0.468873 -0.393227
v 0.023088 0.496970 -0.490971
v 0.021824 0.500075 -0.489307
v 0.021872 0.472155 -0.392217
v 0.021824 0.500075 -0.489307
v 0.018976 0.502286 -0.488133
v 0.019153 0.474563 -0.391652
v 0.018976 0.502286 -0.488133
v 0.015443 0.503034 -0.487912
v 0.015882 0.475429 -0.391667
v 0.034326 0.468544 -0.364081
v 0.032289 0.467650 -0.363624
v 0.031240 0.465249 -0.368155
v 0.032633 0.469575 -0.360358
v 0.029792 0.469485 -0.362544
v 0.031455 0.468822 -0.361870
v 0.031813 0.466328 -0.372959
v 0.035068 0.469790 -0.368564
v 0.031429 0.465262 -0.370786
v 0.027194 0.478421 -0.365269
v 0.026568 0.473275 -0.365900
v 0.027299 0.476320 -0.362509
v 0.030281 0.480594 -0.369760
v 0.026011 0.477230 -0.370753
v 0.027808 0.479895 -0.367580
v 0.033174 0.478441 -0.372330
v 0.029155 0.474084 -0.376644
v 0.028674 0.477079 -0.374280
v 0.029812 0.472454 -0.377276
v 0.033833 0.476811 -0.372966
v 0.029802 0.471843 -0.376760
v 0.034824 0.473586 -0.371779
v 0.031708 0.468000 -0.374685
v 0.030325 0.470214 -0.375900
v 0.027411 0.471468 -0.364022
v 0.029354 0.472606 -0.359566
v 0.028141 0.474512 -0.360631
v 0.011072 0.466831 -0.394112
v 0.014768 0.467050 -0.380300
v 0.011046 0.470357 -0.393100
v 0.012978 0.463646 -0.395033
v 0.015831 0.465147 -0.379537
v 0.011072 0.466831 -0.394112
v 0.019366 0.461941 -0.395552
v 0.022807 0.465345 -0.394474
v 0.023533 0.461631 -0.384534
v 0.018412 0.461895 -0.381162
v 0.012978 0.463646 -0.395033
v 0.017569 0.461623 -0.395635
v 0.023200 0.468873 -0.393227
v 0.024960 0.466831 -0.386457
v 0.025471 0.464694 -0.385955
v 0.025754 0.468749 -0.386152
v 0.021872 0.472155 -0.392217
v 0.024129 0.469961 -0.385214
v 0.019153 0.474563 -0.391652
v 0.021447 0.473620 -0.382751
v 0.022830 0.471599 -0.384436
v 0.019908 0.474588 -0.381849
v 0.015882 0.475429 -0.391667
v 0.017813 0.474869 -0.380259
v 0.015999 0.474497 -0.379400
v 0.015882 0.475429 -0.391667
v 0.012850 0.473527 -0.392198
v 0.011046 0.470357 -0.393100
v 0.015484 0.468671 -0.378497
v 0.015409 0.472664 -0.378550
v 0.032289 0.467650 -0.363624
v 0.032633 0.469575 -0.360358
v 0.031455 0.468822 -0.361870
v 0.033465 0.468402 -0.362112
v 0.031240 0.465249 -0.368155
v 0.034514 0.468554 -0.366712
v 0.034326 0.468544 -0.364081
v 0.031429 0.465262 -0.370786
v 0.029354 0.472606 -0.359566
v 0.029792 0.469485 -0.362544
v 0.030777 0.471341 -0.359162
v 0.028370 0.470749 -0.362948
v 0.027299 0.476320 -0.362509
v 0.027411 0.471468 -0.364022
v 0.028141 0.474512 -0.360631
v 0.026568 0.473275 -0.365900
v 0.026011 0.477230 -0.370753
v 0.025431 0.475764 -0.368478
v 0.027194 0.478421 -0.365269
v 0.027229 0.477837 -0.372479
v 0.031724 0.479834 -0.371558
v 0.028674 0.477079 -0.374280
v 0.030281 0.480594 -0.369760
v 0.033174 0.478441 -0.372330
v 0.029812 0.472454 -0.377276
v 0.029155 0.474084 -0.376644
v 0.031813 0.466328 -0.372959
v 0.034965 0.471462 -0.370289
v 0.035068 0.469790 -0.368564
v 0.031708 0.468000 -0.374685
v 0.029802 0.471843 -0.376760
v 0.034357 0.475231 -0.372695
v 0.030325 0.470214 -0.375900
v 0.021872 0.472155 -0.392217
v 0.022830 0.471599 -0.384436
v 0.024129 0.469961 -0.385214
v 0.021447 0.473620 -0.382751
v 0.019153 0.474563 -0.391652
v 0.019908 0.474588 -0.381849
v 0.017813 0.474869 -0.380259
v 0.015882 0.475429 -0.391667
v 0.015999 0.474497 -0.379400
v 0.012850 0.473527 -0.392198
v 0.015409 0.472664 -0.378550
v 0.015999 0.474497 -0.379400
v 0.011046 0.470357 -0.393100
v 0.014768 0.467050 -0.380300
v 0.015484 0.468671 -0.378497
v 0.011072 0.466831 -0.394112
v 0.015831 0.465147 -0.379537
v 0.014768 0.467050 -0.380300
v 0.020172 0.460947 -0.383695
v 0.019205 0.461384 -0.382174
v 0.017569 0.461623 -0.395635
v 0.018412 0.461895 -0.381162
v 0.016874 0.463308 -0.380524
v 0.012978 0.463646 -0.395033
v 0.023200 0.468873 -0.393227
v 0.025754 0.468749 -0.386152
v 0.024960 0.466831 -0.386457
v 0.022807 0.465345 -0.394474
v 0.025471 0.464694 -0.385955
v 0.024687 0.462818 -0.386113
v 0.018915 0.490336 -0.494555
v 0.017117 0.490019 -0.494638
v 0.018059 0.490018 -0.494908
v 0.019366 0.461941 -0.395552
v 0.020172 0.460947 -0.383695
v 0.017569 0.461623 -0.395635
v 0.023533 0.461631 -0.384534
v 0.028674 0.477079 -0.374280
v 0.019908 0.474588 -0.381849
v 0.017813 0.474869 -0.380259
v 0.024960 0.466831 -0.386457
v 0.031813 0.466328 -0.372959
v 0.025471 0.464694 -0.385955
v 0.025754 0.468749 -0.386152
v 0.031708 0.468000 -0.374685
v 0.024960 0.466831 -0.386457
v 0.030325 0.470214 -0.375900
v 0.025754 0.468749 -0.386152
v 0.024129 0.469961 -0.385214
v 0.024129 0.469961 -0.385214
v 0.029812 0.472454 -0.377276
v 0.029802 0.471843 -0.376760
v 0.029812 0.472454 -0.377276
v 0.024129 0.469961 -0.385214
v 0.022830 0.471599 -0.384436
v 0.029155 0.474084 -0.376644
v 0.022830 0.471599 -0.384436
v 0.021447 0.473620 -0.382751
v 0.028674 0.477079 -0.374280
v 0.021447 0.473620 -0.382751
v 0.019908 0.474588 -0.381849
v 0.027229 0.477837 -0.372479
v 0.017813 0.474869 -0.380259
v 0.015999 0.474497 -0.379400
v 0.026011 0.477230 -0.370753
v 0.015409 0.472664 -0.378550
v 0.025431 0.475764 -0.368478
v 0.015409 0.472664 -0.378550
v 0.026568 0.473275 -0.365900
v 0.025431 0.475764 -0.368478
v 0.014768 0.467050 -0.380300
v 0.028370 0.470749 -0.362948
v 0.027411 0.471468 -0.364022
v 0.015484 0.468671 -0.378497
v 0.027411 0.471468 -0.364022
v 0.026568 0.473275 -0.365900
v 0.025471 0.464694 -0.385955
v 0.031429 0.465262 -0.370786
v 0.024687 0.462818 -0.386113
v 0.014768 0.467050 -0.380300
v 0.015831 0.465147 -0.379537
v 0.028370 0.470749 -0.362948
v 0.028370 0.470749 -0.362948
v 0.015831 0.465147 -0.379537
v 0.016874 0.463308 -0.380524
v 0.029792 0.469485 -0.362544
v 0.016874 0.463308 -0.380524
v 0.018412 0.461895 -0.381162
v 0.031455 0.468822 -0.361870
v 0.018412 0.461895 -0.381162
v 0.019205 0.461384 -0.382174
v 0.032289 0.467650 -0.363624
v 0.020172 0.460947 -0.383695
v 0.031240 0.465249 -0.368155
v 0.031240 0.465249 -0.368155
v 0.020172 0.460947 -0.383695
v 0.023533 0.461631 -0.384534
v 0.031429 0.465262 -0.370786
v 0.023533 0.461631 -0.384534
v 0.024687 0.462818 -0.386113
v 0.016283 0.520773 -0.574150
v 0.013360 0.526091 -0.583850
v 0.015751 0.526432 -0.584287
v 0.014512 0.520395 -0.573442
v 0.007784 0.527707 -0.580963
v 0.013360 0.526091 -0.583850
v 0.007784 0.527707 -0.580963
v 0.009729 0.521266 -0.569608
v 0.006371 0.530307 -0.577179
v 0.006371 0.530307 -0.577179
v 0.007897 0.523510 -0.565644
v 0.006635 0.533352 -0.573432
v 0.006635 0.533352 -0.573432
v 0.008101 0.526332 -0.562063
v 0.009339 0.535442 -0.571227
v 0.013209 0.537321 -0.570750
v 0.009339 0.535442 -0.571227
v 0.010242 0.529168 -0.559558
v 0.015744 0.508675 -0.545295
v 0.011232 0.510096 -0.542992
v 0.014512 0.520395 -0.573442
v 0.017080 0.508829 -0.545727
v 0.015744 0.508675 -0.545295
v 0.016283 0.520773 -0.574150
v 0.014558 0.520537 -0.535738
v 0.010242 0.529168 -0.559558
v 0.011286 0.518589 -0.536273
v 0.008101 0.526332 -0.562063
v 0.009439 0.515736 -0.538052
v 0.011286 0.518589 -0.536273
v 0.007897 0.523510 -0.565644
v 0.009400 0.512703 -0.540448
v 0.009439 0.515736 -0.538052
v 0.009729 0.521266 -0.569608
v 0.011232 0.510096 -0.542992
v 0.009400 0.512703 -0.540448
v 0.009439 0.515736 -0.538052
v 0.010605 0.498100 -0.489824
v 0.012411 0.501129 -0.488435
v 0.009400 0.512703 -0.540448
v 0.010628 0.494775 -0.491544
v 0.010605 0.498100 -0.489824
v 0.011232 0.510096 -0.542992
v 0.012531 0.491816 -0.493258
v 0.010628 0.494775 -0.491544
v 0.017117 0.490019 -0.494638
v 0.012531 0.491816 -0.493258
v 0.015744 0.508675 -0.545295
v 0.018059 0.490018 -0.494908
v 0.017117 0.490019 -0.494638
v 0.017080 0.508829 -0.545727
v 0.015443 0.503034 -0.487912
v 0.011286 0.518589 -0.536273
v 0.012411 0.501129 -0.488435
v 0.018004 0.521011 -0.573281
v 0.015751 0.526432 -0.584287
v 0.018066 0.526922 -0.583633
v 0.018066 0.526922 -0.583633
v 0.022477 0.530296 -0.580286
v 0.021841 0.523401 -0.569052
v 0.022477 0.530296 -0.580286
v 0.022573 0.533162 -0.576434
v 0.022439 0.526070 -0.564975
v 0.022573 0.533162 -0.576434
v 0.020955 0.535876 -0.572774
v 0.020966 0.528599 -0.561472
v 0.020955 0.535876 -0.572774
v 0.017517 0.536883 -0.570852
v 0.017772 0.530496 -0.559212
v 0.017517 0.536883 -0.570852
v 0.013209 0.537321 -0.570750
v 0.013730 0.531297 -0.558974
v 0.018004 0.521011 -0.573281
v 0.021841 0.523401 -0.569052
v 0.018344 0.509134 -0.545176
v 0.018004 0.521011 -0.573281
v 0.017080 0.508829 -0.545727
v 0.016283 0.520773 -0.574150
v 0.018331 0.519831 -0.535949
v 0.017772 0.530496 -0.559212
v 0.013730 0.531297 -0.558974
v 0.021191 0.517807 -0.537512
v 0.020966 0.528599 -0.561472
v 0.017772 0.530496 -0.559212
v 0.022439 0.526070 -0.564975
v 0.020966 0.528599 -0.561472
v 0.022475 0.515007 -0.539846
v 0.021841 0.523401 -0.569052
v 0.022439 0.526070 -0.564975
v 0.021878 0.511971 -0.542503
v 0.021824 0.500075 -0.489307
v 0.021191 0.517807 -0.537512
v 0.018331 0.519831 -0.535949
v 0.022475 0.515007 -0.539846
v 0.021191 0.517807 -0.537512
v 0.023088 0.496970 -0.490971
v 0.018344 0.509134 -0.545176
v 0.021878 0.511971 -0.542503
v 0.018915 0.490336 -0.494555
v 0.018059 0.490018 -0.494908
v 0.017080 0.508829 -0.545727
v 0.018344 0.509134 -0.545176
v 0.018976 0.502286 -0.488133
v 0.018331 0.519831 -0.535949
v 0.014558 0.520537 -0.535738
v 0.018915 0.490336 -0.494555
v 0.022807 0.465345 -0.394474
v 0.019366 0.461941 -0.395552
v 0.022469 0.493569 -0.492800
v 0.023200 0.468873 -0.393227
v 0.022807 0.465345 -0.394474
v 0.023088 0.496970 -0.490971
v 0.021872 0.472155 -0.392217
v 0.023200 0.468873 -0.393227
v 0.021872 0.472155 -0.392217
v 0.021824 0.500075 -0.489307
v 0.019153 0.474563 -0.391652
v 0.019153 0.474563 -0.391652
v 0.018976 0.502286 -0.488133
v 0.015882 0.475429 -0.391667
v 0.034326 0.468544 -0.364081
v 0.033465 0.468402 -0.362112
v 0.032289 0.467650 -0.363624
v 0.030777 0.471341 -0.359162
v 0.029792 0.469485 -0.362544
v 0.032633 0.469575 -0.360358
v 0.031429 0.465262 -0.370786
v 0.035068 0.469790 -0.368564
v 0.034514 0.468554 -0.366712
v 0.025431 0.475764 -0.368478
v 0.026568 0.473275 -0.365900
v 0.027194 0.478421 -0.365269
v 0.030281 0.480594 -0.369760
v 0.027229 0.477837 -0.372479
v 0.026011 0.477230 -0.370753
v 0.031724 0.479834 -0.371558
v 0.033174 0.478441 -0.372330
v 0.028674 0.477079 -0.374280
v 0.033833 0.476811 -0.372966
v 0.034357 0.475231 -0.372695
v 0.029802 0.471843 -0.376760
v 0.031708 0.468000 -0.374685
v 0.034824 0.473586 -0.371779
v 0.034965 0.471462 -0.370289
v 0.027411 0.471468 -0.364022
v 0.028370 0.470749 -0.362948
v 0.029354 0.472606 -0.359566
v 0.012978 0.463646 -0.395033
v 0.016874 0.463308 -0.380524
v 0.015831 0.465147 -0.379537
v 0.024687 0.462818 -0.386113
v 0.023533 0.461631 -0.384534
v 0.022807 0.465345 -0.394474
v 0.019205 0.461384 -0.382174
v 0.018412 0.461895 -0.381162
v 0.017569 0.461623 -0.395635
v 0.022807 0.465345 -0.394474
v 0.023200 0.468873 -0.393227
v 0.025471 0.464694 -0.385955
v 0.023200 0.468873 -0.393227
v 0.021872 0.472155 -0.392217
v 0.025754 0.468749 -0.386152
v 0.022830 0.471599 -0.384436
v 0.021872 0.472155 -0.392217
v 0.019153 0.474563 -0.391652
v 0.019908 0.474588 -0.381849
v 0.019153 0.474563 -0.391652
v 0.015882 0.475429 -0.391667
v 0.011046 0.470357 -0.393100
v 0.015409 0.472664 -0.378550
v 0.012850 0.473527 -0.392198
v 0.026011 0.477230 -0.370753
v 0.027194 0.478421 -0.365269
v 0.027808 0.479895 -0.367580
v 0.033174 0.478441 -0.372330
v 0.033833 0.476811 -0.372966
v 0.029812 0.472454 -0.377276
v 0.030325 0.470214 -0.375900
v 0.034357 0.475231 -0.372695
v 0.034824 0.473586 -0.371779
v 0.018915 0.490336 -0.494555
v 0.017569 0.461623 -0.395635
v 0.017117 0.490019 -0.494638
v 0.019366 0.461941 -0.395552
v 0.028674 0.477079 -0.374280
v 0.017813 0.474869 -0.380259
v 0.027229 0.477837 -0.372479
v 0.024960 0.466831 -0.386457
v 0.031708 0.468000 -0.374685
v 0.031813 0.466328 -0.372959
v 0.025754 0.468749 -0.386152
v 0.030325 0.470214 -0.375900
v 0.031708 0.468000 -0.374685
v 0.024129 0.469961 -0.385214
v 0.029802 0.471843 -0.376760
v 0.030325 0.470214 -0.375900
v 0.029155 0.474084 -0.376644
v 0.029812 0.472454 -0.377276
v 0.022830 0.471599 -0.384436
v 0.028674 0.477079 -0.374280
v 0.029155 0.474084 -0.376644
v 0.021447 0.473620 -0.382751
v 0.027229 0.477837 -0.372479
v 0.015999 0.474497 -0.379400
v 0.026011 0.477230 -0.370753
v 0.015999 0.474497 -0.379400
v 0.015409 0.472664 -0.378550
v 0.026011 0.477230 -0.370753
v 0.027411 0.471468 -0.364022
v 0.015484 0.468671 -0.378497
v 0.014768 0.467050 -0.380300
v 0.015409 0.472664 -0.378550
v 0.015484 0.468671 -0.378497
v 0.026568 0.473275 -0.365900
v 0.031813 0.466328 -0.372959
v 0.031429 0.465262 -0.370786
v 0.025471 0.464694 -0.385955
v 0.028370 0.470749 -0.362948
v 0.016874 0.463308 -0.380524
v 0.029792 0.469485 -0.362544
v 0.029792 0.469485 -0.362544
v 0.018412 0.461895 -0.381162
v 0.031455 0.468822 -0.361870
v 0.032289 0.467650 -0.363624
v 0.031455 0.468822 -0.361870
v 0.019205 0.461384 -0.382174
v 0.032289 0.467650 -0.363624
v 0.019205 0.461384 -0.382174
v 0.020172 0.460947 -0.383695
v 0.031429 0.465262 -0.370786
v 0.031240 0.465249 -0.368155
v 0.023533 0.461631 -0.384534
vt -1.023427 15.029807
vt -0.952824 14.997027
vt -0.902436 15.471891
vt -1.919382 15.617570
vt -1.718017 15.472862
vt -1.579310 15.982971
vt -2.059647 16.378946
vt -2.371883 15.999927
vt -2.227831 15.866051
vt -1.874149 16.115368
vt -2.185426 15.717245
vt -2.042081 15.603787
vt -1.209737 15.653752
vt -1.468537 15.202808
vt -1.309740 15.131334
vt -0.200118 14.864954
vt -0.154602 15.393219
vt -0.365480 14.866670
vt 0.050309 2.860407
vt -0.106658 2.934190
vt -0.123103 2.859435
vt -1.849019 15.839506
vt -1.787041 14.546762
vt -1.646772 15.696033
vt -0.908113 15.612965
vt -0.887447 14.359725
vt -0.837179 15.580907
vt -0.272406 14.031933
vt -0.199337 15.055541
vt -0.364699 15.057244
vt -1.430357 15.417021
vt -1.415049 14.330985
vt -1.271280 15.346173
vt -2.158318 15.815749
vt -2.200163 14.666660
vt -2.014566 15.702807
vt -2.368960 16.006008
vt -2.418606 14.789550
vt -2.224882 15.872161
vt -1.577450 14.556849
vt -1.601536 12.481802
vt -1.429621 14.514835
vt -2.351224 14.777934
vt -2.443114 12.668948
vt -2.210563 14.713243
vt -2.559340 14.861769
vt -2.653080 12.713452
vt -2.414289 14.786659
vt -1.987629 14.728093
vt -1.956681 12.533509
vt -1.791835 14.650119
vt -1.077831 12.404731
vt -1.005843 14.566585
vt -1.059192 14.585355
vt -0.324030 12.331102
vt -0.245433 14.369851
vt -0.399430 14.371356
vt -0.161955 14.875737
vt -0.091117 14.908000
vt -0.113178 15.373030
vt 0.932241 15.889881
vt 0.828572 15.278994
vt 1.030719 15.422616
vt 1.809848 16.510958
vt 1.829352 15.875002
vt 1.973839 16.008404
vt 2.199631 16.370209
vt 2.215054 15.740585
vt 2.358224 15.854266
vt 2.194207 15.171582
vt 2.070210 15.695550
vt 2.036218 15.098336
vt 1.427829 14.808631
vt 1.385243 15.338829
vt 1.262490 14.805606
vt 1.240308 3.302395
vt 1.085402 3.224378
vt 1.258776 3.228113
vt 0.748264 15.606276
vt 0.882756 14.456317
vt 1.078977 14.533216
vt -0.086973 14.339251
vt -0.033510 14.357689
vt -0.138939 15.560361
vt 1.475105 14.122824
vt 1.242304 15.143287
vt 1.321125 14.120106
vt 2.316885 14.528457
vt 2.017209 15.499418
vt 2.169340 14.485451
vt 2.223718 15.782912
vt 2.412339 14.747313
vt 2.552876 14.812270
vt 2.183035 14.816567
vt 2.037783 14.741851
vt 2.422661 12.707115
vt 1.847272 15.825033
vt 2.499907 12.597805
vt 2.166148 14.603942
vt 2.350287 12.571978
vt 2.412439 14.750079
vt 2.648533 12.706188
vt 2.794101 12.742073
vt 2.031200 14.739511
vt 2.264015 12.665624
vt 2.415769 12.704717
vt 0.860851 14.573656
vt 1.012012 12.456026
vt 1.213556 12.492972
vt 0.217837 12.387633
vt 0.255610 12.398193
vt 0.139404 14.549264
vt 1.606728 12.398227
vt 1.362223 14.433414
vt 1.461800 12.395582
vt -0.579471 8.552702
vt -0.382142 12.561043
vt -0.527085 12.562581
vt -0.434531 8.550810
vt -1.607156 12.610926
vt -1.882713 8.607357
vt -1.732314 8.602659
vt -1.756922 12.635919
vt -2.449382 12.689367
vt -2.766018 8.668610
vt -2.619158 8.662419
vt -2.594999 12.725040
vt -2.646852 12.727903
vt -2.971784 8.677995
vt -2.818734 8.671509
vt -2.798506 12.767389
vt -2.140566 12.735618
vt -2.055121 8.606033
vt -1.939249 12.697457
vt -2.257356 8.611762
vt 1.184268 12.700504
vt 0.982698 12.663699
vt 1.074870 8.567135
vt 2.406242 12.748698
vt 2.254483 12.709627
vt 2.420277 8.639318
vt 2.795337 12.739365
vt 2.649767 12.703487
vt 2.823188 8.660599
vt 2.492136 12.671293
vt 2.342506 12.645525
vt 2.482023 8.626986
vt 1.604327 12.590393
vt 1.459399 12.587761
vt 1.542125 8.578038
vt -0.277933 7.988042
vt -0.192546 7.956620
vt -0.084862 8.136465
vt -2.902868 4.708178
vt -2.850097 4.841755
vt -2.907077 4.790506
vt 1.069477 7.835588
vt 0.849709 7.698013
vt 1.095180 7.740806
vt -1.821811 7.462328
vt -2.029557 7.438203
vt -1.876476 7.334578
vt 0.036344 8.061003
vt -0.184871 8.067736
vt -0.044844 7.953123
vt 2.295624 4.904026
vt 2.204214 5.183072
vt 2.144630 5.041018
vt 1.332792 6.827667
vt 1.070813 6.695004
vt 1.349495 6.800369
vt 1.790805 3.715192
vt 2.058379 3.802304
vt 1.999039 3.901243
vt -2.560471 6.005063
vt -2.492496 5.817046
vt -2.419512 5.885470
vt -2.775602 8.114115
vt -2.639916 7.557647
vt -2.628752 8.107671
vt -2.961718 8.420303
vt -2.846757 7.796804
vt -2.808684 8.413430
vt 1.325109 8.208961
vt 1.126640 8.199965
vt 1.141302 7.774178
vt -2.212654 8.398968
vt -2.036044 8.973231
vt -2.238272 8.979157
vt 2.830934 8.183611
vt 2.856480 7.892843
vt 2.937116 7.852167
vt 2.752182 8.469876
vt 2.581817 8.739634
vt 2.666514 8.444027
vt 2.650585 8.463087
vt 2.670617 8.093544
vt 2.779170 8.142475
vt 1.554045 8.540236
vt 1.400851 8.938176
vt 1.467618 8.479026
vt -0.378760 8.432776
vt -0.428832 8.923068
vt -0.573772 8.924975
vt -2.560406 8.003952
vt -2.478377 7.394367
vt -2.323848 7.435841
vt -2.071120 6.865145
vt -2.069160 6.712687
vt -2.028942 6.784646
vt -2.111337 6.793186
vt 0.680891 8.114964
vt 0.487372 8.090359
vt 0.474645 7.985472
vt 0.693619 8.219851
vt -2.724943 5.706270
vt -2.858247 5.817557
vt -2.794602 5.671335
vt -2.788585 5.852491
vt -2.158300 6.629763
vt -2.361403 6.643779
vt -2.212453 6.534301
vt -2.307250 6.739242
vt -1.160075 7.923968
vt -1.202099 7.821317
vt -1.050658 7.721882
vt 0.642038 7.385000
vt 0.841196 7.362694
vt 0.678912 7.475109
vt 0.804435 7.272707
vt 2.725474 3.346960
vt 2.874421 3.651511
vt 2.802665 3.630270
vt 1.593833 6.735247
vt 1.336176 6.678069
vt 1.378160 6.591337
vt 1.551849 6.821980
vt 1.607148 4.631800
vt 1.379970 4.468723
vt 1.650182 4.568332
vt 2.788015 8.590855
vt 2.772578 8.276428
vt 2.860570 8.292035
vt 2.343198 8.381833
vt 2.287849 8.747757
vt 2.266662 8.354484
vt 0.721903 8.502078
vt 0.627917 8.956438
vt 0.649443 8.464065
vt -1.867236 8.421669
vt -1.736510 7.879926
vt -1.669213 7.930673
vt -2.440766 7.982761
vt -2.424195 7.432874
vt -2.340468 7.375915
vt -2.884646 8.228028
vt -2.885433 7.610228
vt -2.807795 7.660436
vt -2.240626 8.509002
vt -2.193164 8.451803
vt -2.174221 8.994685
vt -2.749712 8.113187
vt -2.663148 8.100505
vt -2.626586 8.701243
vt 1.918723 7.819039
vt 1.820520 7.534167
vt 1.904273 7.527508
vt 2.009028 7.941416
vt 1.913580 7.595925
vt 1.994393 7.583854
vt -0.609335 11.600993
vt -0.536148 11.600595
vt -0.572664 11.614905
vt -0.637139 9.038930
vt -0.685402 8.563720
vt -0.563950 9.038638
vt -0.820970 8.604158
vt 1.406135 8.142041
vt 1.041920 8.446178
vt 0.960520 8.378426
vt 2.686671 6.758150
vt 2.579044 6.161111
vt 2.765184 6.713515
vt 1.791412 6.824994
vt 1.620639 6.335509
vt 1.875138 6.818008
vt 2.655047 7.546752
vt 2.573316 7.992743
vt 2.488911 7.963026
vt 1.460214 6.951515
vt 1.193907 6.648278
vt 1.210113 6.620681
vt 2.811812 6.148151
vt 2.765310 6.549036
vt 2.678588 6.527459
vt 2.603283 6.394217
vt 2.485770 6.791362
vt 2.387393 6.724281
vt 2.133912 6.842542
vt 1.917950 7.256682
vt 1.845690 7.219477
vt 0.923643 8.310132
vt 0.509161 8.595972
vt 0.437466 8.556536
vt -0.037163 7.374543
vt -0.530574 7.635065
vt -0.076040 7.270660
vt -1.471092 5.726391
vt -1.110359 5.154536
vt -1.073547 5.300539
vt -2.544597 5.517839
vt -2.199622 4.691511
vt -2.184475 4.754141
vt -1.813638 5.862042
vt -1.379534 5.238740
vt -1.347706 5.343778
vt 1.902233 7.463677
vt 1.650208 6.861070
vt 1.983033 7.451519
vt -2.643975 5.509151
vt -2.711826 5.446343
vt -2.349481 4.663516
vt -2.762629 5.417726
vt -2.704445 6.278381
vt -2.792540 6.309744
vt -2.704879 5.932356
vt -2.531878 6.836696
vt -2.617706 6.853657
vt -1.928004 7.283009
vt -1.452398 8.132118
vt -1.486879 8.175450
vt -2.754574 6.344789
vt -2.581416 7.306063
vt -2.791082 6.551204
vt -1.002001 8.188546
vt -0.492163 8.783389
vt -0.627116 8.825838
vt 0.253627 7.879181
vt 0.672245 8.378275
vt 0.616987 8.451345
vt -0.927468 14.950471
vt -0.811234 15.393830
vt -0.907098 15.415579
vt -1.894905 15.551174
vt -1.555810 15.917481
vt -1.795198 16.018179
vt -2.234736 16.524696
vt -2.399256 16.022318
vt -2.087024 16.401339
vt -2.022668 16.214428
vt -2.179920 15.698076
vt -1.869052 16.096519
vt -1.047625 15.110430
vt -1.136988 14.579459
vt -0.899760 15.042116
vt 0.040950 15.169311
vt -0.132465 15.169021
vt -0.156746 14.637673
vt -2.010569 14.625663
vt -1.814876 14.547436
vt -1.874557 15.840288
vt -1.099394 14.384645
vt -1.046086 14.365760
vt -1.054430 15.619143
vt -0.247112 14.036413
vt -0.341595 15.061524
vt -0.401110 14.037935
vt -1.468602 15.420695
vt -1.604635 14.376883
vt -1.456878 14.334615
vt -2.176993 15.821116
vt -2.361404 14.736880
vt -2.220785 14.672099
vt -2.364399 16.005032
vt -2.558779 14.863666
vt -2.413725 14.788560
vt -1.596789 14.558683
vt -1.772515 12.508722
vt -1.622760 12.483659
vt -2.360215 14.779441
vt -2.598500 12.706175
vt -2.452887 12.670489
vt -2.556287 14.861078
vt -2.801303 12.752245
vt -2.649653 12.712744
vt -2.163342 12.572146
vt -1.962052 12.533850
vt -1.992488 14.728441
vt -1.381083 12.434720
vt -1.343397 12.423858
vt -1.300553 14.604140
vt -0.383918 12.328739
vt -0.453772 14.369191
vt -0.528861 12.330285
vt -0.279984 14.909889
vt -0.225090 15.406544
vt -0.321138 15.385641
vt 0.876068 15.908040
vt 0.635942 15.809107
vt 0.769568 15.297641
vt 2.006532 16.519781
vt 1.858555 16.396748
vt 2.026740 15.883850
vt 2.207423 16.366468
vt 2.053931 16.248394
vt 2.221891 15.736821
vt 1.885042 15.674986
vt 1.737071 15.606901
vt 1.815696 15.080839
vt 1.228820 15.437383
vt 1.055410 15.436268
vt 1.092871 14.907371
vt 0.921699 15.730771
vt 0.718513 15.588623
vt 1.047574 14.515055
vt -0.291467 15.537513
vt -0.197479 14.333893
vt -0.220280 15.568999
vt 1.495335 14.137337
vt 1.425742 15.160289
vt 1.260402 15.157311
vt 2.299094 14.503968
vt 2.160839 15.547485
vt 2.002150 15.475769
vt 2.377625 15.890205
vt 2.234067 15.777014
vt 2.562019 14.805965
vt 2.006445 15.966164
vt 1.862018 15.832698
vt 2.198113 14.824343
vt 2.489363 12.592352
vt 2.304833 14.641542
vt 2.157225 14.598757
vt 2.557718 14.814525
vt 2.417154 14.749628
vt 2.798298 12.741524
vt 1.050926 14.648491
vt 0.854612 14.571828
vt 1.206834 12.491063
vt -0.032449 12.376327
vt -0.071253 14.546895
vt -0.124751 14.528557
vt 1.557843 12.384374
vt 1.472680 14.422887
vt 1.318699 14.420199
vt 1.220774 12.699978
vt 1.113424 8.566555
vt 1.311896 8.575472
vt 2.499764 12.751253
vt 2.517404 8.641887
vt 2.667292 8.657078
vt 2.801111 12.739045
vt 2.828454 8.660275
vt 2.975638 8.669101
vt 2.658239 8.628865
vt 2.518128 12.673045
vt 2.510964 8.628732
vt 1.741726 8.571019
vt 1.663837 12.591224
vt 1.606402 8.578799
vt -0.526913 8.085113
vt -0.502423 8.002404
vt -0.440456 8.056768
vt -2.590443 6.035098
vt -2.610710 6.193278
vt -2.695533 6.077379
vt 1.096665 7.732097
vt 0.851193 7.689303
vt 0.888667 7.605435
vt -1.887563 6.256102
vt -1.951040 6.119564
vt -1.743592 6.146127
vt 0.018068 8.277022
vt -0.160958 8.360281
vt -0.203166 8.283091
vt 2.302376 4.565353
vt 2.378398 4.606108
vt 2.234814 4.750849
vt 1.843911 3.417938
vt 1.898513 3.378120
vt 2.097038 3.575077
vt 1.712767 6.416737
vt 1.438823 6.352407
vt 1.500165 6.268326
vt -2.668480 6.014671
vt -2.698182 5.957490
vt -2.613231 5.822530
vt -2.946218 8.433483
vt -2.926472 7.831958
vt -2.835780 7.809167
vt -0.141901 7.807619
vt -0.087540 7.733879
vt -0.078524 8.159823
vt -2.485601 8.366664
vt -2.443487 8.330706
vt -2.486372 8.909875
vt 2.714462 7.835293
vt 2.564648 7.819385
vt 2.651669 7.482403
vt 2.982216 7.863216
vt 2.835082 7.853589
vt 2.965392 7.562362
vt 2.653333 8.363852
vt 2.658021 8.678622
vt 2.510745 8.678486
vt 1.784341 8.499575
vt 1.776895 8.893347
vt 1.641586 8.901378
vt -1.886385 8.460249
vt -1.601699 7.914664
vt -1.735987 8.455535
vt -1.134498 7.936892
vt -1.025140 7.734774
vt -0.982395 7.838869
vt 2.726803 3.353190
vt 2.798500 3.374842
vt 2.873845 3.658666
vt 1.606886 4.812927
vt 1.335589 4.716311
vt 1.378844 4.651765
vt -0.620407 12.672568
vt -0.564145 8.546793
vt -0.547219 12.672267
vt -0.637334 8.547090
vt 1.601877 7.758287
vt 1.167789 8.015227
vt 1.543668 7.680242
vt 1.592385 7.060427
vt 1.318465 6.588681
vt 1.358076 6.500839
vt 2.865761 6.913122
vt 2.757289 6.472870
vt 2.842614 6.395219
vt 2.258726 6.070431
vt 2.066472 5.702953
vt 2.116961 5.645239
vt 2.789145 5.223751
vt 2.862655 5.237761
vt 2.815862 5.637053
vt 2.664568 5.285670
vt 2.780848 5.386706
vt 2.630997 5.751529
vt 0.694738 8.200461
vt 0.203686 8.437002
vt 0.646865 8.126651
vt -0.957705 6.118038
vt -1.019681 6.060915
vt -0.543803 5.769598
vt -2.679711 4.881910
vt -2.742694 5.638868
vt -2.807718 5.716497
vt -2.134582 5.213189
vt -2.285825 5.160989
vt -1.905314 4.577121
vt 0.440119 7.646242
vt 0.465110 7.551270
vt 0.756345 8.135935
vt -2.778474 5.066413
vt -2.950661 5.942165
vt -2.845937 5.027401
vt -2.799419 5.665032
vt -2.794864 6.590436
vt -2.861029 5.619453
vt -2.382577 6.877865
vt -2.332074 6.802310
vt -2.008431 7.743743
vt -1.600415 7.733842
vt -1.052894 8.501924
vt -1.089758 8.566464
vt -0.508240 8.264515
vt -0.511686 8.158914
vt -0.107209 8.777847
usemtl Default_Material.007
s off
f 1/1 2/2 3/3
f 4/4 5/5 6/6
f 7/7 8/8 9/9
f 10/10 11/11 12/12
f 13/13 14/14 15/15
f 16/16 17/17 18/18
f 19/19 20/20 21/21
f 22/22 23/23 24/24
f 25/25 26/26 27/27
f 28/28 29/29 30/30
f 31/31 32/32 33/33
f 34/34 35/35 36/36
f 37/37 38/38 39/39
f 40/40 41/41 42/42
f 43/43 44/44 45/45
f 46/46 47/47 48/48
f 49/49 50/50 51/51
f 52/52 53/53 54/54
f 55/55 56/56 57/57
f 58/58 59/59 60/60
f 61/61 62/62 63/63
f 64/64 65/65 66/66
f 67/67 68/68 69/69
f 70/70 71/71 72/72
f 73/73 74/74 75/75
f 76/76 77/77 78/78
f 79/79 80/80 81/81
f 82/82 83/83 84/84
f 85/85 86/86 87/87
f 88/88 89/89 90/90
f 91/91 92/92 93/93
f 94/94 95/95 96/96
f 95/95 94/94 97/97
f 98/98 99/99 100/100
f 101/101 102/102 103/103
f 104/104 105/105 106/106
f 107/107 108/108 109/109
f 110/110 111/111 112/112
f 113/113 114/114 115/115
f 116/116 117/117 118/118
f 117/117 116/116 119/119
f 120/120 121/121 122/122
f 121/121 120/120 123/123
f 124/124 125/125 126/126
f 125/125 124/124 127/127
f 128/128 129/129 130/130
f 129/129 128/128 131/131
f 132/132 133/133 134/134
f 133/133 132/132 135/135
f 136/136 137/137 138/138
f 139/139 140/140 141/141
f 142/142 143/143 144/144
f 145/145 146/146 147/147
f 148/148 149/149 150/150
f 151/151 152/152 153/153
f 154/154 155/155 156/156
f 157/157 158/158 159/159
f 160/160 161/161 162/162
f 163/163 164/164 165/165
f 166/166 167/167 168/168
f 169/169 170/170 171/171
f 172/172 173/173 174/174
f 175/175 176/176 177/177
f 178/178 179/179 180/180
f 181/181 182/182 183/183
f 184/184 185/185 186/186
f 187/187 188/188 189/189
f 190/190 191/191 192/192
f 193/193 194/194 195/195
f 196/196 197/197 198/198
f 199/199 200/200 201/201
f 202/202 203/203 204/204
f 205/205 206/206 207/207
f 208/208 209/209 210/210
f 209/209 208/208 211/211
f 212/212 213/213 214/214
f 213/213 212/212 215/215
f 216/216 217/217 218/218
f 217/217 216/216 219/219
f 220/220 221/221 222/222
f 221/221 220/220 223/223
f 224/224 225/225 226/226
f 227/227 228/228 229/229
f 228/228 227/227 230/230
f 231/231 232/232 233/233
f 234/234 235/235 236/236
f 235/235 234/234 237/237
f 238/238 239/239 240/240
f 241/241 242/242 243/243
f 244/244 245/245 246/246
f 247/247 248/248 249/249
f 250/250 251/251 252/252
f 253/253 254/254 255/255
f 256/256 257/257 258/258
f 259/259 260/260 261/261
f 262/262 263/263 264/264
f 265/265 266/266 267/267
f 268/268 269/269 270/270
f 271/271 272/272 273/273
f 274/274 275/275 276/276
f 275/275 274/274 277/277
f 278/278 279/279 280/280
f 281/281 282/282 283/283
f 284/284 285/285 286/286
f 287/287 288/288 289/289
f 290/290 291/291 292/292
f 293/293 294/294 295/295
f 296/296 297/297 298/298
f 299/299 300/300 301/301
f 302/302 303/303 304/304
f 305/305 306/306 307/307
f 308/308 309/309 310/310
f 311/311 312/312 313/313
f 314/314 315/315 316/316
f 317/317 318/318 319/319
f 320/320 321/321 322/322
f 323/323 324/324 325/325
f 326/326 327/327 328/328
f 329/329 330/330 331/331
f 332/332 333/333 334/334
f 335/335 336/336 337/337
f 338/338 339/339 340/340
f 341/341 342/342 343/343
f 344/344 345/345 346/346
f 347/347 348/348 349/349
f 350/350 351/351 352/352
f 353/353 354/354 355/355
f 356/356 357/357 358/358
f 359/359 360/360 361/361
f 362/362 363/363 364/364
f 365/365 366/366 367/367
f 368/368 369/369 370/370
f 371/371 372/372 373/373
f 374/374 375/375 376/376
f 377/377 378/378 379/379
f 380/380 381/381 382/382
f 383/383 384/384 385/385
f 386/386 387/387 388/388
f 389/389 390/390 391/391
f 392/392 393/393 394/394
f 395/395 396/396 397/397
f 398/398 399/399 400/400
f 401/401 402/402 403/403
f 404/404 405/405 406/406
f 407/407 408/408 409/409
f 410/410 411/411 412/412
f 413/413 414/414 415/415
f 416/416 417/417 418/418
f 419/419 420/420 421/421
f 422/422 423/423 424/424
f 425/425 426/426 427/427
f 428/428 429/429 430/430
f 431/431 432/432 433/433
f 434/434 435/435 436/436
f 437/437 438/438 439/439
f 440/440 441/441 442/442
f 443/443 444/444 445/445
f 446/446 447/447 448/448
f 449/449 450/450 451/451
f 452/452 453/453 454/454
f 455/455 456/456 457/457
f 458/458 459/459 460/460
f 461/461 462/462 463/463
f 464/464 465/465 466/466
f 467/467 468/468 469/469
f 470/470 471/471 472/472
f 473/473 474/474 475/475
f 476/476 477/477 478/478
f 479/479 480/480 481/481
f 482/482 483/483 484/484
f 485/485 486/486 487/487
f 488/488 489/489 490/490
f 491/491 492/492 493/493
f 494/494 495/495 496/496
f 497/497 498/498 499/499
f 500/500 501/501 502/502
f 503/503 504/504 505/505
f 506/506 507/507 508/508
f 509/509 510/510 511/511
f 512/512 513/513 514/514
f 515/515 516/516 517/517
f 518/518 519/519 520/520
f 521/521 522/522 523/523
f 522/522 521/521 524/524
f 525/525 526/526 527/527
f 528/528 529/529 530/530
f 531/531 532/532 533/533
f 534/534 535/535 536/536
f 537/537 538/538 539/539
f 540/540 541/541 542/542
f 543/543 544/544 545/545
f 546/546 547/547 548/548
f 549/549 550/550 551/551
f 552/552 553/553 554/554
f 555/555 556/556 557/557
f 558/558 559/559 560/560
f 561/561 562/562 563/563
f 564/564 565/565 566/566
f 567/567 568/568 569/569
f 570/570 571/571 572/572
