# Blender v2.78 (sub 0) OBJ File: 'untitled.blend'
# www.blender.org
mtllib trocar.mtl
o Cylinder
v 1.723797 2.411366 -0.177016
v 1.821175 2.411366 -0.167425
v 1.914810 2.411366 -0.139021
v 2.001105 2.411366 -0.092895
v 2.076744 2.411366 -0.030820
v 2.138818 2.411366 0.044818
v 2.184944 2.411366 0.131113
v 2.213348 2.411366 0.224749
v 2.222939 2.411366 0.322127
v 2.213348 2.411366 0.419504
v 2.184944 2.411366 0.513140
v 2.138818 2.411366 0.599435
v 2.076744 2.411366 0.675073
v 2.001105 2.411366 0.737148
v 1.914810 2.411366 0.783274
v 1.821175 2.411366 0.811678
v 1.723797 2.411366 0.821269
v 1.626419 2.411366 0.811678
v 1.532783 2.411366 0.783274
v 1.446488 2.411366 0.737148
v 1.370850 2.411366 0.675073
v 1.308775 2.411366 0.599435
v 1.262650 2.411366 0.513140
v 1.234246 2.411366 0.419504
v 1.224655 2.411366 0.322126
v 1.234246 2.411366 0.224748
v 1.262650 2.411366 0.131113
v 1.308776 2.411366 0.044818
v 1.370851 2.411366 -0.030821
v 1.446489 2.411366 -0.092895
v 1.532784 2.411366 -0.139021
v 1.626420 2.411366 -0.167425
v 1.723797 2.961973 -0.177016
v 1.821175 2.961973 -0.167425
v 1.914810 2.961973 -0.139021
v 2.001106 2.961973 -0.092895
v 2.076744 2.961973 -0.030820
v 2.138819 2.961973 0.044818
v 2.184944 2.961973 0.131113
v 2.213348 2.961973 0.224749
v 2.222939 2.961973 0.322127
v 2.213348 2.961973 0.419504
v 2.184944 2.961973 0.513140
v 2.138819 2.961973 0.599435
v 2.076744 2.961973 0.675073
v 2.001105 2.961973 0.737148
v 1.914810 2.961973 0.783274
v 1.821175 2.961973 0.811678
v 1.723797 2.961973 0.821269
v 1.626419 2.961973 0.811678
v 1.532783 2.961973 0.783274
v 1.446488 2.961973 0.737148
v 1.370850 2.961973 0.675073
v 1.308775 2.961973 0.599435
v 1.262650 2.961973 0.513140
v 1.234246 2.961973 0.419504
v 1.224655 2.961973 0.322126
v 1.234246 2.961973 0.224748
v 1.262650 2.961973 0.131113
v 1.308776 2.961973 0.044818
v 1.370851 2.961973 -0.030821
v 1.446489 2.961973 -0.092895
v 1.532784 2.961973 -0.139021
v 1.626420 2.961973 -0.167425
v 1.693674 1.786133 -0.733720
v 1.693674 3.786133 -0.733720
v 1.888764 1.786133 -0.714505
v 1.888764 3.786133 -0.714505
v 2.076358 1.786133 -0.657599
v 2.076358 3.786133 -0.657599
v 2.249244 1.786133 -0.565189
v 2.249244 3.786133 -0.565189
v 2.400781 1.786133 -0.440827
v 2.400781 3.786133 -0.440827
v 2.525144 1.786133 -0.289290
v 2.525144 3.786133 -0.289290
v 2.617554 1.786133 -0.116403
v 2.617554 3.786133 -0.116403
v 2.674459 1.786133 0.071190
v 2.674459 3.786133 0.071190
v 2.693674 1.786133 0.266280
v 2.693674 3.786133 0.266280
v 2.674459 1.786133 0.461370
v 2.674459 3.786133 0.461370
v 2.617554 1.786133 0.648963
v 2.617554 3.786133 0.648963
v 2.525144 1.786133 0.821850
v 2.525144 3.786133 0.821850
v 2.400781 1.786133 0.973387
v 2.400781 3.786133 0.973387
v 2.249244 1.786133 1.097750
v 2.249244 3.786133 1.097750
v 2.076357 1.786133 1.190160
v 2.076357 3.786133 1.190160
v 1.888764 1.786133 1.247066
v 1.888764 3.786133 1.247066
v 1.693674 1.786133 1.266280
v 1.693674 3.786133 1.266280
v 1.498583 1.786133 1.247065
v 1.498583 3.786133 1.247065
v 1.310990 1.786133 1.190160
v 1.310990 3.786133 1.190160
v 1.138103 1.786133 1.097749
v 1.138103 3.786133 1.097749
v 0.986567 1.786133 0.973387
v 0.986567 3.786133 0.973387
v 0.862204 1.786133 0.821850
v 0.862204 3.786133 0.821850
v 0.769794 1.786133 0.648963
v 0.769794 3.786133 0.648963
v 0.712889 1.786133 0.461370
v 0.712889 3.786133 0.461370
v 0.693674 1.786133 0.266279
v 0.693674 3.786133 0.266279
v 0.712889 1.786133 0.071189
v 0.712889 3.786133 0.071189
v 0.769795 1.786133 -0.116404
v 0.769795 3.786133 -0.116404
v 0.862205 1.786133 -0.289291
v 0.862205 3.786133 -0.289291
v 0.986568 1.786133 -0.440827
v 0.986568 3.786133 -0.440827
v 1.138105 1.786133 -0.565190
v 1.138105 3.786133 -0.565190
v 1.310992 1.786133 -0.657600
v 1.310992 3.786133 -0.657600
v 1.498585 1.786133 -0.714505
v 1.498585 3.786133 -0.714505
v 2.138819 3.786133 0.599435
v 1.723797 3.786133 -0.177016
v 1.626420 3.786133 -0.167425
v 1.532784 3.786133 -0.139021
v 1.262650 3.786133 0.513140
v 1.308775 3.786133 0.599435
v 1.234246 3.786133 0.419504
v 1.370850 3.786133 0.675073
v 1.626419 3.786133 0.811678
v 1.723797 3.786133 0.821269
v 1.532783 3.786133 0.783274
v 2.213348 3.786133 0.224749
v 2.001106 3.786133 -0.092895
v 2.222939 3.786133 0.322127
v 2.184944 3.786133 0.131113
v 1.821175 3.786133 0.811678
v 1.370851 3.786133 -0.030821
v 1.446489 3.786133 -0.092895
v 1.308776 3.786133 0.044818
v 2.213348 3.786133 0.419504
v 2.001105 3.786133 0.737148
v 2.076744 3.786133 0.675073
v 2.184944 3.786133 0.513140
v 1.224655 3.786133 0.322126
v 1.446488 3.786133 0.737148
v 1.234246 3.786133 0.224748
v 2.076744 3.786133 -0.030820
v 1.914810 3.786133 0.783274
v 2.138819 3.786133 0.044818
v 1.262650 3.786133 0.131113
v 1.914810 3.786133 -0.139021
v 1.821175 3.786133 -0.167425
v 2.076744 1.786133 -0.030820
v 2.001105 1.786133 -0.092895
v 2.076744 1.786133 0.675073
v 2.184944 1.786133 0.513140
v 2.138818 1.786133 0.599435
v 2.138818 1.786133 0.044818
v 2.001105 1.786133 0.737148
v 1.914810 1.786133 0.783274
v 1.914810 1.786133 -0.139021
v 2.184944 1.786133 0.131113
v 2.213348 1.786133 0.419504
v 2.222939 1.786133 0.322127
v 2.213348 1.786133 0.224749
v 1.821175 1.786133 -0.167425
v 1.821175 1.786133 0.811678
v 1.723797 1.786133 -0.177016
v 1.626419 1.786133 0.811678
v 1.723797 1.786133 0.821269
v 1.446489 1.786133 -0.092895
v 1.532784 1.786133 -0.139021
v 1.370851 1.786133 -0.030821
v 1.626420 1.786133 -0.167425
v 1.446488 1.786133 0.737148
v 1.308776 1.786133 0.044818
v 1.308775 1.786133 0.599435
v 1.370850 1.786133 0.675073
v 1.532783 1.786133 0.783274
v 1.262650 1.786133 0.513140
v 1.234246 1.786133 0.224748
v 1.262650 1.786133 0.131113
v 1.224655 1.786133 0.322126
v 1.234246 1.786133 0.419504
vn -0.0000 -1.0000 0.0000
vn -0.0980 0.0000 0.9952
vn -0.2903 0.0000 0.9569
vn -0.4714 0.0000 0.8819
vn -0.6344 0.0000 0.7730
vn -0.7730 0.0000 0.6344
vn -0.8819 0.0000 0.4714
vn -0.9569 0.0000 0.2903
vn -0.9952 0.0000 0.0980
vn -0.9952 0.0000 -0.0980
vn -0.9569 0.0000 -0.2903
vn -0.8819 0.0000 -0.4714
vn -0.7730 0.0000 -0.6344
vn -0.6344 0.0000 -0.7730
vn -0.4714 0.0000 -0.8819
vn -0.2903 0.0000 -0.9569
vn -0.0980 0.0000 -0.9952
vn 0.0980 0.0000 -0.9952
vn 0.2903 0.0000 -0.9569
vn 0.4714 0.0000 -0.8819
vn 0.6344 0.0000 -0.7730
vn 0.7730 0.0000 -0.6344
vn 0.8819 0.0000 -0.4714
vn 0.9569 0.0000 -0.2903
vn 0.9952 0.0000 -0.0980
vn 0.9952 0.0000 0.0980
vn 0.9569 0.0000 0.2903
vn 0.8819 0.0000 0.4714
vn 0.7730 0.0000 0.6344
vn 0.6344 0.0000 0.7730
vn 0.4714 0.0000 0.8819
vn 0.2903 0.0000 0.9569
vn 0.0980 0.0000 0.9952
vn 0.0000 1.0000 0.0000
usemtl None
s off
f 2//1 3//1 4//1 5//1 6//1 7//1 8//1 9//1 10//1 11//1 12//1 13//1 14//1 15//1 16//1 17//1 18//1 19//1 20//1 21//1 22//1 23//1 24//1 25//1 26//1 27//1 28//1 29//1 30//1 31//1 32//1 1//1
f 33//2 34//2 160//2 130//2
f 34//3 35//3 159//3 160//3
f 35//4 36//4 141//4 159//4
f 36//5 37//5 155//5 141//5
f 37//6 38//6 157//6 155//6
f 38//7 39//7 143//7 157//7
f 39//8 40//8 140//8 143//8
f 40//9 41//9 142//9 140//9
f 41//10 42//10 148//10 142//10
f 42//11 43//11 151//11 148//11
f 43//12 44//12 129//12 151//12
f 44//13 45//13 150//13 129//13
f 45//14 46//14 149//14 150//14
f 46//15 47//15 156//15 149//15
f 47//16 48//16 144//16 156//16
f 48//17 49//17 138//17 144//17
f 49//18 50//18 137//18 138//18
f 50//19 51//19 139//19 137//19
f 51//20 52//20 153//20 139//20
f 52//21 53//21 136//21 153//21
f 53//22 54//22 134//22 136//22
f 54//23 55//23 133//23 134//23
f 55//24 56//24 135//24 133//24
f 56//25 57//25 152//25 135//25
f 57//26 58//26 154//26 152//26
f 58//27 59//27 158//27 154//27
f 59//28 60//28 147//28 158//28
f 60//29 61//29 145//29 147//29
f 61//30 62//30 146//30 145//30
f 62//31 63//31 132//31 146//31
f 63//32 64//32 131//32 132//32
f 64//33 33//33 130//33 131//33
f 33//34 64//34 63//34 62//34 61//34 60//34 59//34 58//34 57//34 56//34 55//34 54//34 53//34 52//34 51//34 50//34 49//34 48//34 47//34 46//34 45//34 44//34 43//34 42//34 41//34 40//34 39//34 38//34 37//34 36//34 35//34 34//34
f 65//18 66//18 68//18 67//18
f 67//19 68//19 70//19 69//19
f 69//20 70//20 72//20 71//20
f 71//21 72//21 74//21 73//21
f 73//22 74//22 76//22 75//22
f 75//23 76//23 78//23 77//23
f 77//24 78//24 80//24 79//24
f 79//25 80//25 82//25 81//25
f 81//26 82//26 84//26 83//26
f 83//27 84//27 86//27 85//27
f 85//28 86//28 88//28 87//28
f 87//29 88//29 90//29 89//29
f 89//30 90//30 92//30 91//30
f 91//31 92//31 94//31 93//31
f 93//32 94//32 96//32 95//32
f 95//33 96//33 98//33 97//33
f 97//2 98//2 100//2 99//2
f 99//3 100//3 102//3 101//3
f 101//4 102//4 104//4 103//4
f 103//5 104//5 106//5 105//5
f 105//6 106//6 108//6 107//6
f 107//7 108//7 110//7 109//7
f 109//8 110//8 112//8 111//8
f 111//9 112//9 114//9 113//9
f 113//10 114//10 116//10 115//10
f 115//11 116//11 118//11 117//11
f 117//12 118//12 120//12 119//12
f 119//13 120//13 122//13 121//13
f 121//14 122//14 124//14 123//14
f 123//15 124//15 126//15 125//15
f 68//34 66//34 128//34 126//34 124//34 122//34 120//34 118//34 116//34 114//34 112//34 152//34 154//34 158//34 147//34 145//34 146//34 132//34 131//34 130//34 160//34 159//34 141//34 155//34 157//34 143//34 140//34 142//34 84//34 82//34 80//34 78//34 76//34 74//34 72//34 70//34
f 125//16 126//16 128//16 127//16
f 127//17 128//17 66//17 65//17
f 65//1 67//1 69//1 71//1 73//1 75//1 77//1 79//1 81//1 83//1 172//1 173//1 170//1 166//1 161//1 162//1 169//1 174//1 176//1 182//1 180//1 179//1 181//1 184//1 190//1 189//1 191//1 111//1 113//1 115//1 117//1 119//1 121//1 123//1 125//1 127//1
f 84//34 142//34 148//34 151//34 129//34 150//34 149//34 156//34 144//34 138//34 137//34 139//34 153//34 136//34 134//34 133//34 135//34 152//34 112//34 110//34 108//34 106//34 104//34 102//34 100//34 98//34 96//34 94//34 92//34 90//34 88//34 86//34
f 171//10 10//10 9//10 172//10
f 163//13 13//13 12//13 165//13
f 165//12 12//12 11//12 164//12
f 189//26 26//26 25//26 191//26
f 173//8 8//8 7//8 170//8
f 172//9 9//9 8//9 173//9
f 166//6 6//6 5//6 161//6
f 176//33 1//33 32//33 182//33
f 177//18 18//18 17//18 178//18
f 184//28 28//28 27//28 190//28
f 178//17 17//17 16//17 175//17
f 182//32 32//32 31//32 180//32
f 161//5 5//5 4//5 162//5
f 111//1 191//1 192//1 188//1 185//1 186//1 183//1 187//1 177//1 178//1 175//1 168//1 167//1 163//1 165//1 164//1 171//1 172//1 83//1 85//1 87//1 89//1 91//1 93//1 95//1 97//1 99//1 101//1 103//1 105//1 107//1 109//1
f 183//20 20//20 19//20 187//20
f 162//4 4//4 3//4 169//4
f 167//14 14//14 13//14 163//14
f 179//30 30//30 29//30 181//30
f 190//27 27//27 26//27 189//27
f 168//15 15//15 14//15 167//15
f 186//21 21//21 20//21 183//21
f 188//23 23//23 22//23 185//23
f 174//2 2//2 1//2 176//2
f 170//7 7//7 6//7 166//7
f 191//25 25//25 24//25 192//25
f 164//11 11//11 10//11 171//11
f 187//19 19//19 18//19 177//19
f 180//31 31//31 30//31 179//31
f 192//24 24//24 23//24 188//24
f 169//3 3//3 2//3 174//3
f 175//16 16//16 15//16 168//16
f 181//29 29//29 28//29 184//29
f 185//22 22//22 21//22 186//22
