# Blender v2.65 (sub 0) OBJ File: 'VesiculaCompleta.blend'
# www.blender.org
mtllib arteria1.mtl
o Mesh.001_ShapeIndexedFaceS.001_Mesh.001_ShapeIndexedFaceS.002
v -0.042054 0.576717 -0.188191
v -0.042511 0.577328 -0.188517
v -0.036523 0.576772 -0.193753
v -0.036065 0.576160 -0.193427
v -0.042691 0.575547 -0.188785
v -0.042133 0.575940 -0.188308
v -0.036144 0.575382 -0.193545
v -0.036703 0.574989 -0.194022
v -0.043657 0.576267 -0.189513
v -0.043199 0.575656 -0.189187
v -0.037211 0.575099 -0.194424
v -0.037668 0.575710 -0.194750
v -0.043019 0.577438 -0.188918
v -0.043578 0.577046 -0.189396
v -0.037590 0.576488 -0.194632
v -0.037031 0.576881 -0.194155
v -0.031832 0.577689 -0.197189
v -0.031737 0.578469 -0.197272
v -0.031095 0.578936 -0.197019
v -0.030515 0.578901 -0.196713
v -0.029997 0.578361 -0.196353
v -0.030092 0.577580 -0.196270
v -0.030734 0.577113 -0.196523
v -0.031314 0.577148 -0.196829
v -0.024870 0.578420 -0.198443
v -0.025252 0.577819 -0.198877
v -0.025486 0.577678 -0.199474
v -0.025573 0.577998 -0.200235
v -0.025345 0.578712 -0.200488
v -0.024964 0.579312 -0.200055
v -0.024729 0.579453 -0.199458
v -0.024642 0.579133 -0.198697
v -0.017864 0.578390 -0.203468
v -0.017630 0.578530 -0.202871
v -0.017542 0.578211 -0.202110
v -0.017770 0.577498 -0.201856
v -0.018152 0.576897 -0.202290
v -0.018386 0.576756 -0.202887
v -0.018473 0.577076 -0.203648
v -0.018245 0.577789 -0.203902
v -0.042133 0.575940 -0.188308
v -0.042054 0.576717 -0.188191
v -0.035867 0.577591 -0.196409
v -0.035946 0.576814 -0.196526
v -0.043199 0.575656 -0.189187
v -0.042691 0.575547 -0.188785
v -0.036505 0.576421 -0.197004
v -0.037013 0.576530 -0.197405
v -0.043578 0.577046 -0.189396
v -0.043657 0.576267 -0.189513
v -0.037470 0.577141 -0.197732
v -0.037392 0.577919 -0.197615
v -0.042511 0.577328 -0.188517
v -0.043019 0.577438 -0.188918
v -0.036833 0.578312 -0.197137
v -0.036325 0.578203 -0.196735
v -0.027495 0.583436 -0.209936
v -0.026797 0.583885 -0.209857
v -0.026145 0.583826 -0.209808
v -0.025538 0.583259 -0.209791
v -0.025609 0.582473 -0.209840
v -0.026306 0.582025 -0.209919
v -0.026959 0.582084 -0.209967
v -0.027565 0.582650 -0.209984
v -0.022669 0.584834 -0.220014
v -0.023311 0.584882 -0.220142
v -0.023913 0.585439 -0.220271
v -0.023851 0.586227 -0.220274
v -0.023168 0.586687 -0.220147
v -0.022526 0.586639 -0.220019
v -0.021924 0.586082 -0.219889
v -0.021986 0.585295 -0.219887
v -0.019408 0.575240 -0.256701
v -0.018839 0.575199 -0.256378
v -0.021214 0.587457 -0.237523
v -0.021783 0.587499 -0.237847
v -0.020081 0.573988 -0.257023
v -0.020019 0.574773 -0.257025
v -0.022393 0.587032 -0.238171
v -0.022456 0.586246 -0.238169
v -0.018982 0.573396 -0.256373
v -0.019551 0.573437 -0.256698
v -0.021926 0.585696 -0.237843
v -0.021356 0.585654 -0.237519
v -0.018309 0.574648 -0.256052
v -0.018372 0.573862 -0.256051
v -0.020746 0.586121 -0.237196
v -0.020684 0.586906 -0.237198
v -0.022258 0.585436 -0.229511
v -0.021576 0.585897 -0.229385
v -0.021513 0.586682 -0.229387
v -0.022115 0.587239 -0.229516
v -0.022758 0.587287 -0.229643
v -0.023440 0.586826 -0.229771
v -0.023503 0.586041 -0.229769
v -0.022901 0.585484 -0.229640
v -0.022494 0.587275 -0.227600
v -0.021892 0.586718 -0.227471
v -0.021955 0.585930 -0.227469
v -0.022637 0.585470 -0.227595
v -0.023280 0.585518 -0.227724
v -0.023882 0.586075 -0.227853
v -0.023820 0.586863 -0.227855
v -0.023137 0.587323 -0.227729
v -0.023649 0.585494 -0.229207
v -0.023806 0.585508 -0.228411
v -0.023664 0.587409 -0.228418
v -0.023507 0.587395 -0.229212
v -0.024431 0.586899 -0.230420
v -0.024506 0.585962 -0.230418
v -0.024959 0.586002 -0.228131
v -0.024885 0.586943 -0.228133
v -0.024681 0.585309 -0.229747
v -0.024868 0.585325 -0.228797
v -0.024699 0.587594 -0.228805
v -0.024511 0.587578 -0.229753
v -0.025684 0.586070 -0.230652
v -0.025484 0.585126 -0.230927
v -0.026348 0.585352 -0.228542
v -0.026491 0.586301 -0.228672
v -0.025687 0.584608 -0.229833
v -0.026016 0.584683 -0.229051
v -0.026340 0.586872 -0.229341
v -0.026005 0.586755 -0.230115
vn -0.122684 -0.208594 -0.970244
vn 0.149693 -0.664418 -0.732170
vn -0.195990 -0.847926 -0.492508
vn -0.509110 -0.208106 -0.835139
vn 0.338481 0.749565 -0.568804
vn -0.027039 0.455458 -0.889828
vn -0.501907 0.642140 -0.579394
vn -0.170507 0.985321 0.004456
vn 0.971435 0.226783 0.069613
vn 0.689169 0.687765 -0.228065
vn 0.195837 0.844295 0.498764
vn 0.494980 0.287240 0.820002
vn 0.511551 -0.766015 -0.389233
vn 0.886044 -0.463424 -0.011048
vn 0.491623 -0.532975 0.688620
vn 0.185430 -0.979064 0.083560
vn 0.317179 0.352763 0.880306
vn 0.480728 -0.468612 0.741111
vn 0.252571 -0.960356 0.117832
vn -0.068056 -0.875881 -0.477676
vn -0.311533 -0.405042 -0.859554
vn -0.434492 0.394238 -0.809778
vn -0.272896 0.957305 -0.095035
vn 0.039003 0.830958 0.554918
vn -0.385968 0.232063 -0.892819
vn -0.209632 0.862514 -0.460524
vn 0.067812 0.993591 0.090335
vn 0.379620 0.591815 0.711051
vn 0.415632 -0.302561 0.857692
vn 0.190832 -0.872189 0.450392
vn -0.057253 -0.994049 -0.092380
vn -0.304270 -0.642628 -0.703116
vn -0.596179 -0.473647 0.648244
vn -0.799310 -0.573321 0.179937
vn -0.892270 -0.296518 -0.340465
vn -0.777581 0.366649 -0.510758
vn -0.566790 0.799097 -0.200354
vn -0.376385 0.902493 0.209235
vn -0.215247 0.642323 0.735557
vn -0.328288 -0.018036 0.944395
vn -0.140080 0.499191 -0.855068
vn -0.203070 -0.181066 -0.962249
vn -0.740349 -0.247963 -0.624805
vn -0.707114 0.594440 -0.382855
vn 0.657430 0.714774 -0.238350
vn 0.265572 0.800287 -0.537522
vn -0.246559 0.967193 0.061159
vn 0.256569 0.867000 0.427107
vn 0.901364 -0.415540 -0.121677
vn 0.965331 0.260628 -0.012696
vn 0.705924 0.307718 0.637898
vn 0.724631 -0.547838 0.418043
vn 0.136845 -0.632038 -0.762719
vn 0.526200 -0.710685 -0.466903
vn 0.261788 -0.963225 -0.060213
vn -0.270547 -0.857631 -0.437269
vn 0.791803 -0.563128 0.236396
vn 0.229835 -0.948088 -0.219764
vn -0.347423 -0.813410 -0.466475
vn -0.808283 -0.284585 -0.515397
vn -0.812098 0.511948 -0.279916
vn -0.287240 0.945585 0.152745
vn 0.308664 0.826289 0.471053
vn 0.779168 0.280618 0.560442
vn -0.313181 0.943083 0.111606
vn 0.328715 0.917783 0.222602
vn 0.904569 0.364879 0.220435
vn 0.840602 -0.540025 0.041566
vn 0.242439 -0.961974 -0.125584
vn -0.377911 -0.900479 -0.215094
vn -0.900998 -0.372936 -0.221564
vn -0.881222 0.465133 -0.083987
vn -0.203558 -0.540361 0.816401
vn -0.593005 -0.449049 0.668294
vn -0.462569 -0.872768 0.155766
vn 0.136814 -0.948332 0.286233
vn 0.525254 0.432783 0.732658
vn 0.399518 -0.260170 0.879025
vn 0.762932 -0.566698 0.311014
vn 0.967650 0.247444 0.048769
vn -0.341411 0.899716 0.271859
vn 0.146092 0.859706 0.489395
vn 0.537461 0.822657 -0.185339
vn -0.145634 0.944212 -0.295297
vn -0.902585 -0.123112 0.412458
vn -0.817133 0.548845 0.176031
vn -0.875240 0.440809 -0.198981
vn -0.922422 -0.386059 -0.008972
vn -0.259468 0.965117 -0.034120
vn -0.853175 0.505875 -0.127110
vn -0.922544 -0.358654 -0.142338
vn -0.397198 -0.915403 -0.064852
vn 0.130802 -0.984710 0.114933
vn 0.231269 -0.670736 0.704672
vn 0.285104 0.628193 0.723899
vn 0.267861 0.952879 0.142338
vn -0.366283 -0.927854 -0.069826
vn -0.914548 -0.390606 -0.104770
vn -0.859554 0.506790 -0.065737
vn -0.242439 0.970122 0.008393
vn 0.335978 0.940703 -0.046510
vn 0.697348 0.446730 -0.560411
vn 0.609546 -0.562151 -0.558946
vn 0.193548 -0.973662 -0.120396
vn -0.082461 0.966582 0.242622
vn 0.118442 0.939665 -0.320841
vn 0.034577 -0.954436 -0.296396
vn -0.163091 -0.952391 0.257546
vn 0.202979 -0.942747 -0.264565
vn -0.023743 -0.899045 0.437178
vn 0.190924 0.308145 -0.931944
vn 0.322855 -0.454604 -0.830103
vn -0.488998 0.846950 0.208594
vn -0.182867 0.864437 -0.468276
vn -0.236122 -0.416547 0.877895
vn -0.478317 0.283883 0.830988
vn -0.577502 0.816065 0.022828
vn -0.333293 0.792779 -0.510269
vn 0.081606 0.362468 -0.928404
vn 0.423292 -0.377178 -0.823725
vn -0.040407 -0.360607 0.931822
vn -0.568590 0.445296 0.691641
vn 0.466750 -0.859767 -0.207129
vn 0.312693 -0.799524 0.512803
usemtl XXX.002
s 1
f 1//1 2//2 3//3
f 1//1 3//3 4//4
f 5//5 6//6 7//7
f 5//5 7//7 8//8
f 9//9 10//10 11//11
f 9//9 11//11 12//12
f 13//13 14//14 15//15
f 13//13 15//15 16//16
f 15//15 12//12 17//17
f 15//15 17//17 18//18
f 3//3 16//16 19//19
f 3//3 19//19 20//20
f 7//7 4//4 21//21
f 7//7 21//21 22//22
f 11//11 8//8 23//23
f 11//11 23//23 24//24
f 23//23 22//22 25//25
f 23//23 25//25 26//26
f 17//17 24//24 27//27
f 17//17 27//27 28//28
f 19//19 18//18 29//29
f 19//19 29//29 30//30
f 21//21 20//20 31//31
f 21//21 31//31 32//32
f 31//31 30//30 33//33
f 31//31 33//33 34//34
f 25//25 32//32 35//35
f 25//25 35//35 36//36
f 27//27 26//26 37//37
f 27//27 37//37 38//38
f 29//29 28//28 39//39
f 29//29 39//39 40//40
f 5//5 10//10 9//9
f 5//5 9//9 14//14
f 5//5 14//14 13//13
f 5//5 13//13 2//2
f 2//2 1//1 5//5
f 5//5 1//1 6//6
f 41//41 42//42 43//43
f 41//41 43//43 44//44
f 45//45 46//46 47//47
f 45//45 47//47 48//48
f 49//49 50//50 51//51
f 49//49 51//51 52//52
f 53//53 54//54 55//55
f 53//53 55//55 56//56
f 55//55 52//52 57//57
f 55//55 57//57 58//58
f 43//43 56//56 59//59
f 43//43 59//59 60//60
f 47//47 44//44 61//61
f 47//47 61//61 62//62
f 51//51 48//48 63//63
f 51//51 63//63 64//64
f 63//63 62//62 65//65
f 63//63 65//65 66//66
f 57//57 64//64 67//67
f 57//57 67//67 68//68
f 59//59 58//58 69//69
f 59//59 69//69 70//70
f 61//61 60//60 71//71
f 61//61 71//71 72//72
f 73//73 74//74 75//75
f 73//73 75//75 76//76
f 77//77 78//78 79//79
f 77//77 79//79 80//80
f 81//81 82//82 83//83
f 81//81 83//83 84//84
f 85//85 86//86 87//87
f 85//85 87//87 88//88
f 87//87 84//84 89//89
f 87//87 89//89 90//90
f 75//75 88//88 91//91
f 75//75 91//91 92//92
f 79//79 76//76 93//93
f 79//79 93//93 94//94
f 83//83 80//80 95//95
f 83//83 95//95 96//96
f 71//71 70//70 97//97
f 71//71 97//97 98//98
f 65//65 72//72 99//99
f 65//65 99//99 100//100
f 67//67 66//66 101//101
f 67//67 101//101 102//102
f 69//69 68//68 103//103
f 69//69 103//103 104//104
f 105//105 106//106 101//101
f 105//105 101//101 96//96
f 103//103 107//107 104//104
f 91//91 98//98 97//97
f 91//91 97//97 92//92
f 78//78 77//77 82//82
f 78//78 82//82 81//81
f 78//78 81//81 86//86
f 78//78 86//86 85//85
f 78//78 85//85 74//74
f 78//78 74//74 73//73
f 99//99 90//90 89//89
f 99//99 89//89 100//100
f 46//46 45//45 50//50
f 46//46 50//50 49//49
f 46//46 49//49 54//54
f 46//46 54//54 53//53
f 46//46 53//53 42//42
f 46//46 42//42 41//41
f 91//91 90//90 99//99
f 91//91 99//99 98//98
f 101//101 106//106 102//102
f 96//96 95//95 105//105
f 93//93 108//108 94//94
f 92//92 97//97 104//104
f 92//92 104//104 93//93
f 104//104 107//107 108//108
f 104//104 108//108 93//93
f 96//96 101//101 100//100
f 96//96 100//100 89//89
f 68//68 67//67 102//102
f 68//68 102//102 103//103
f 66//66 65//65 100//100
f 66//66 100//100 101//101
f 72//72 71//71 98//98
f 72//72 98//98 99//99
f 70//70 69//69 104//104
f 70//70 104//104 97//97
f 80//80 79//79 94//94
f 80//80 94//94 95//95
f 76//76 75//75 92//92
f 76//76 92//92 93//93
f 88//88 87//87 90//90
f 88//88 90//90 91//91
f 84//84 83//83 96//96
f 84//84 96//96 89//89
f 86//86 81//81 84//84
f 86//86 84//84 87//87
f 82//82 77//77 80//80
f 82//82 80//80 83//83
f 78//78 73//73 76//76
f 78//78 76//76 79//79
f 74//74 85//85 88//88
f 74//74 88//88 75//75
f 60//60 59//59 70//70
f 60//60 70//70 71//71
f 58//58 57//57 68//68
f 58//58 68//68 69//69
f 64//64 63//63 66//66
f 64//64 66//66 67//67
f 62//62 61//61 72//72
f 62//62 72//72 65//65
f 48//48 47//47 62//62
f 48//48 62//62 63//63
f 44//44 43//43 60//60
f 44//44 60//60 61//61
f 56//56 55//55 58//58
f 56//56 58//58 59//59
f 52//52 51//51 64//64
f 52//52 64//64 57//57
f 54//54 49//49 52//52
f 54//54 52//52 55//55
f 50//50 45//45 48//48
f 50//50 48//48 51//51
f 46//46 41//41 44//44
f 46//46 44//44 47//47
f 42//42 53//53 56//56
f 42//42 56//56 43//43
f 30//30 29//29 40//40
f 30//30 40//40 33//33
f 28//28 27//27 38//38
f 28//28 38//38 39//39
f 26//26 25//25 36//36
f 26//26 36//36 37//37
f 32//32 31//31 34//34
f 32//32 34//34 35//35
f 22//22 21//21 32//32
f 22//22 32//32 25//25
f 20//20 19//19 30//30
f 20//20 30//30 31//31
f 18//18 17//17 28//28
f 18//18 28//28 29//29
f 24//24 23//23 26//26
f 24//24 26//26 27//27
f 12//12 11//11 24//24
f 12//12 24//24 17//17
f 8//8 7//7 22//22
f 8//8 22//22 23//23
f 4//4 3//3 20//20
f 4//4 20//20 21//21
f 16//16 15//15 18//18
f 16//16 18//18 19//19
f 2//2 13//13 16//16
f 2//2 16//16 3//3
f 14//14 9//9 12//12
f 14//14 12//12 15//15
f 10//10 5//5 8//8
f 10//10 8//8 11//11
f 6//6 1//1 4//4
f 6//6 4//4 7//7
f 39//39 38//38 37//37
f 39//39 37//37 36//36
f 39//39 36//36 35//35
f 39//39 35//35 34//34
f 39//39 34//34 33//33
f 39//39 33//33 40//40
f 108//108 107//107 115//109
f 108//108 115//109 116//110
f 103//103 102//102 111//111
f 103//103 111//111 112//112
f 107//107 103//103 112//112
f 107//107 112//112 115//109
f 106//106 105//105 113//113
f 106//106 113//113 114//114
f 95//95 94//94 109//115
f 95//95 109//115 110//116
f 105//105 95//95 110//116
f 105//105 110//116 113//113
f 102//102 106//106 114//114
f 102//102 114//114 111//111
f 94//94 108//108 116//110
f 94//94 116//110 109//115
f 114//114 113//113 121//117
f 114//114 121//117 122//118
f 112//112 111//111 119//119
f 112//112 119//119 120//120
f 111//111 114//114 122//118
f 111//111 122//118 119//119
f 110//116 109//115 117//121
f 110//116 117//121 118//122
f 115//109 112//112 120//120
f 115//109 120//120 123//123
f 113//113 110//116 118//122
f 113//113 118//122 121//117
f 116//110 115//109 123//123
f 116//110 123//123 124//124
f 109//115 116//110 124//124
f 109//115 124//124 117//121
