# Blender v2.65 (sub 0) OBJ File: ''
# www.blender.org
mtllib MANPinza2.mtl
o Cube_Cube.001
v -0.025216 0.585832 -0.227338
v -0.026220 0.585766 -0.227838
v -0.026194 0.585076 -0.227756
v -0.025272 0.585202 -0.227142
v -0.025793 0.585796 -0.228734
v -0.025751 0.586294 -0.228964
v -0.024617 0.586369 -0.228398
v -0.024724 0.585867 -0.228201
v -0.024782 0.587236 -0.228208
v -0.024514 0.586770 -0.228739
v -0.024584 0.587592 -0.228722
v -0.025059 0.586534 -0.227658
v -0.026128 0.586463 -0.228191
v -0.025819 0.585144 -0.228515
v -0.026453 0.583675 -0.227054
v -0.025458 0.583748 -0.226541
v -0.024815 0.585211 -0.228014
v -0.024831 0.584520 -0.227885
v -0.025836 0.584453 -0.228385
v -0.026697 0.582902 -0.226471
v -0.025702 0.582976 -0.225958
v -0.026133 0.583162 -0.227600
v -0.025139 0.583236 -0.227086
v -0.026198 0.582102 -0.227323
v -0.025833 0.581518 -0.227944
v -0.026113 0.580632 -0.227276
v -0.026478 0.581216 -0.226654
v -0.025383 0.582464 -0.226503
v -0.026377 0.582390 -0.227017
v -0.024244 0.587115 -0.229302
v -0.024223 0.587823 -0.229442
v -0.025915 0.587160 -0.228773
v -0.025648 0.587524 -0.229249
v -0.025578 0.586702 -0.229266
v -0.024063 0.586993 -0.229630
v -0.023884 0.587490 -0.230041
v -0.025306 0.587044 -0.229832
v -0.025286 0.587753 -0.229972
v -0.023835 0.586753 -0.230030
v -0.023669 0.587230 -0.230415
v -0.024947 0.587419 -0.230571
v -0.025126 0.586922 -0.230159
v -0.024898 0.586683 -0.230559
v -0.024732 0.587160 -0.230944
v -0.023877 0.583758 -0.229596
v -0.024077 0.583351 -0.229157
v -0.025081 0.583284 -0.229658
v -0.024881 0.583691 -0.230097
v -0.025036 0.584623 -0.230011
v -0.023967 0.584694 -0.229478
v -0.023731 0.584995 -0.229894
v -0.024865 0.584920 -0.230459
v -0.023289 0.584924 -0.230725
v -0.023210 0.585562 -0.231054
v -0.023603 0.585458 -0.230289
v -0.024634 0.584148 -0.230710
v -0.023565 0.584219 -0.230177
v -0.025278 0.584306 -0.229427
v -0.024595 0.582364 -0.228014
v -0.025590 0.582291 -0.228527
v -0.025584 0.584063 -0.228810
v -0.024580 0.584129 -0.228309
v -0.024274 0.584373 -0.228927
v -0.024839 0.581592 -0.227431
v -0.025954 0.582875 -0.227906
v -0.024959 0.582948 -0.227392
v -0.026657 0.581504 -0.226348
v -0.026976 0.582016 -0.225803
v -0.025203 0.582176 -0.226809
v -0.023256 0.586231 -0.231060
v -0.023571 0.585979 -0.230424
v -0.024664 0.585385 -0.230822
v -0.024271 0.585489 -0.231586
v -0.024423 0.584848 -0.231291
v -0.023487 0.586875 -0.230711
v -0.023659 0.586367 -0.230311
v -0.024634 0.585908 -0.230953
v -0.024319 0.586160 -0.231590
v -0.024722 0.586296 -0.230841
v -0.024550 0.586804 -0.231241
v -0.026326 0.580995 -0.224622
v -0.027193 0.580931 -0.225070
v -0.027141 0.580452 -0.224929
v -0.026415 0.580506 -0.224554
v -0.025483 0.581290 -0.226140
v -0.025982 0.582090 -0.225289
v -0.026037 0.580531 -0.225116
v -0.026187 0.580141 -0.224943
v -0.025662 0.581577 -0.225834
v -0.025119 0.580706 -0.226762
v -0.026058 0.579935 -0.225162
v -0.026785 0.579881 -0.225537
v -0.026759 0.579689 -0.225292
v -0.026250 0.579727 -0.225029
v -0.026531 0.580177 -0.224551
v -0.026353 0.579891 -0.224855
v -0.026058 0.579935 -0.225162
v -0.026785 0.579881 -0.225537
v -0.026523 0.579460 -0.225985
v -0.026523 0.579460 -0.225985
v -0.025796 0.579514 -0.225610
v -0.025796 0.579514 -0.225610
v -0.026904 0.580467 -0.225564
v -0.026913 0.580087 -0.225318
v -0.026861 0.579853 -0.225117
v -0.026559 0.579696 -0.224728
v -0.026823 0.579677 -0.224864
v -0.026546 0.579348 -0.225655
v -0.026566 0.579265 -0.225303
v -0.026687 0.579457 -0.225098
v -0.027039 0.580139 -0.224813
v -0.026037 0.579386 -0.225392
v -0.026909 0.579815 -0.224718
v -0.026645 0.579834 -0.224581
v -0.026302 0.579284 -0.225166
v -0.026422 0.579477 -0.224961
v -0.026666 0.580537 -0.226126
v -0.025725 0.580606 -0.225640
v -0.026302 0.579953 -0.226748
v -0.025360 0.580022 -0.226261
v -0.026846 0.580824 -0.225820
v -0.027165 0.581337 -0.225275
v -0.026223 0.581406 -0.224789
v -0.025904 0.580894 -0.225334
v -0.025542 0.579738 -0.225960
v -0.025874 0.580270 -0.225394
v -0.026409 0.579674 -0.226408
v -0.026741 0.580206 -0.225842
usemtl None
s 1
f 1 2 3 4
f 5 6 7 8
f 9 7 10 11
f 1 12 13 2
f 12 8 7 9
f 13 5 14 2
f 4 3 15 16
f 14 17 18 19
f 17 1 4 18
f 2 14 19 3
f 16 15 20 21
f 3 19 22 15
f 19 18 23 22
f 18 4 16 23
f 24 25 26 27
f 22 23 28 29
f 23 16 21 28
f 15 22 29 20
f 11 10 30 31
f 6 32 33 34
f 32 9 11 33
f 7 6 34 10
f 31 30 35 36
f 10 34 37 30
f 34 33 38 37
f 33 11 31 38
f 36 35 39 40
f 38 31 36 41
f 30 37 42 35
f 37 38 41 42
f 43 44 40 39
f 35 42 43 39
f 42 41 44 43
f 41 36 40 44
f 45 46 47 48
f 49 50 51 52
f 53 54 55 51
f 56 57 45 48
f 57 53 51 50
f 56 48 58 49
f 46 59 60 47
f 58 61 62 63
f 63 62 46 45
f 48 47 61 58
f 59 64 25 60
f 47 60 65 61
f 61 65 66 62
f 62 66 59 46
f 20 29 67 68
f 65 24 69 66
f 66 69 64 59
f 60 25 24 65
f 54 70 71 55
f 52 72 73 74
f 74 73 54 53
f 51 55 72 52
f 70 75 76 71
f 55 71 77 72
f 72 77 78 73
f 73 78 70 54
f 76 39 43 79
f 78 80 75 70
f 71 76 79 77
f 77 79 80 78
f 74 56 49 52
f 45 57 50 63
f 75 40 39 76
f 80 44 40 75
f 79 43 44 80
f 74 53 57 56
f 58 63 50 49
f 14 5 8 17
f 32 6 5 13
f 81 82 83 84
f 69 24 27 85
f 21 20 68 86
f 87 81 84 88
f 1 17 8 12
f 32 13 12 9
f 29 28 89 67
f 64 69 85 90
f 28 21 86 89
f 25 64 90 26
f 91 92 93 94
f 88 84 95 96
f 97 98 92 91
f 98 99 100 92
f 101 97 91 102
f 103 87 88 104
f 82 103 104 83
f 99 101 102 100
f 105 96 106 107
f 93 108 109 110
f 84 83 111 95
f 102 91 94 112
f 83 104 105 111
f 100 102 112 108
f 92 100 108 93
f 104 88 96 105
f 113 107 106 114
f 109 115 116 110
f 96 95 114 106
f 94 93 110 116
f 95 111 113 114
f 112 94 116 115
f 111 105 107 113
f 108 112 115 109
f 85 27 117 118
f 27 26 119 117
f 90 85 118 120
f 26 90 120 119
f 68 67 121 122
f 86 68 122 123
f 89 86 123 124
f 67 89 124 121
f 121 124 87 103
f 125 126 97 101
f 127 125 101 99
f 126 128 98 97
f 123 122 82 81
f 128 127 99 98
f 120 118 126 125
f 117 119 127 128
f 124 123 81 87
f 119 120 125 127
f 122 121 103 82
f 118 117 128 126
