# Blender v2.65 (sub 0) OBJ File: ''
# www.blender.org
mtllib MANPinza1.mtl
o Cube.001_Cube.002
v -0.032654 0.586364 -0.232888
v -0.033655 0.586806 -0.232632
v -0.033839 0.586190 -0.232369
v -0.032790 0.585837 -0.232510
v -0.033981 0.586644 -0.233556
v -0.033924 0.587063 -0.233908
v -0.032794 0.586564 -0.234196
v -0.032914 0.586173 -0.233828
v -0.032447 0.587396 -0.234232
v -0.032810 0.586870 -0.234636
v -0.032538 0.587622 -0.234841
v -0.032511 0.586907 -0.233439
v -0.033577 0.587377 -0.233167
v -0.034090 0.586082 -0.233173
v -0.034048 0.585078 -0.231254
v -0.033041 0.584646 -0.231497
v -0.033089 0.585640 -0.233429
v -0.033268 0.585043 -0.233104
v -0.034269 0.585485 -0.232849
v -0.034094 0.584510 -0.230435
v -0.033087 0.584078 -0.230677
v -0.034405 0.584486 -0.231684
v -0.033398 0.584055 -0.231927
v -0.034651 0.583587 -0.231106
v -0.035058 0.582912 -0.231596
v -0.035112 0.582261 -0.230657
v -0.034705 0.582935 -0.230166
v -0.033444 0.583487 -0.231107
v -0.034451 0.583918 -0.230865
v -0.032893 0.587052 -0.235321
v -0.032711 0.587663 -0.235660
v -0.033578 0.587895 -0.233944
v -0.033596 0.588092 -0.234569
v -0.033868 0.587341 -0.234363
v -0.033045 0.586864 -0.235631
v -0.033026 0.587220 -0.236198
v -0.033952 0.587520 -0.235051
v -0.033771 0.588131 -0.235390
v -0.033261 0.586553 -0.235986
v -0.033239 0.586896 -0.236519
v -0.034086 0.587687 -0.235928
v -0.034105 0.587332 -0.235361
v -0.034320 0.587020 -0.235715
v -0.034299 0.587364 -0.236249
v -0.034105 0.583949 -0.234693
v -0.034086 0.583682 -0.234122
v -0.035087 0.584124 -0.233866
v -0.035106 0.584391 -0.234438
v -0.034801 0.585278 -0.234577
v -0.033735 0.584808 -0.234849
v -0.033755 0.584964 -0.235392
v -0.034886 0.585463 -0.235104
v -0.034065 0.584704 -0.236245
v -0.034000 0.585230 -0.236736
v -0.033770 0.585315 -0.235905
v -0.035196 0.584683 -0.235182
v -0.034130 0.584213 -0.235453
v -0.034676 0.585107 -0.233903
v -0.034005 0.583049 -0.232658
v -0.035012 0.583480 -0.232416
v -0.034542 0.585030 -0.233189
v -0.033541 0.584588 -0.233444
v -0.033675 0.584665 -0.234158
v -0.034052 0.582481 -0.231839
v -0.034605 0.584154 -0.231926
v -0.033598 0.583723 -0.232168
v -0.034504 0.583267 -0.229925
v -0.034147 0.583858 -0.229495
v -0.033645 0.583155 -0.231348
v -0.033785 0.585837 -0.236924
v -0.033648 0.585756 -0.236188
v -0.034831 0.585780 -0.235637
v -0.035061 0.585695 -0.236468
v -0.035196 0.585203 -0.235956
v -0.033456 0.586504 -0.236733
v -0.033483 0.586135 -0.236175
v -0.034707 0.586224 -0.235918
v -0.034845 0.586304 -0.236654
v -0.034543 0.586603 -0.235905
v -0.034516 0.586972 -0.236463
v -0.033313 0.582625 -0.228694
v -0.034191 0.583001 -0.228483
v -0.034240 0.582555 -0.228259
v -0.033505 0.582239 -0.228436
v -0.033698 0.582504 -0.230409
v -0.033140 0.583427 -0.229737
v -0.033637 0.582089 -0.229084
v -0.033759 0.581818 -0.228742
v -0.033497 0.582835 -0.230167
v -0.034105 0.581829 -0.230899
v -0.033903 0.581580 -0.228915
v -0.034638 0.581895 -0.228738
v -0.034527 0.581710 -0.228513
v -0.034012 0.581489 -0.228637
v -0.033698 0.582008 -0.228259
v -0.033897 0.581679 -0.228499
v -0.033903 0.581580 -0.228915
v -0.034638 0.581895 -0.228738
v -0.034931 0.581410 -0.229091
v -0.034931 0.581410 -0.229091
v -0.034196 0.581095 -0.229268
v -0.034196 0.581095 -0.229268
v -0.034514 0.582465 -0.228873
v -0.034495 0.582133 -0.228565
v -0.034412 0.581900 -0.228375
v -0.034015 0.581607 -0.228220
v -0.034282 0.581722 -0.228156
v -0.034764 0.581316 -0.228799
v -0.034569 0.581246 -0.228502
v -0.034435 0.581468 -0.228340
v -0.034213 0.582229 -0.228135
v -0.034249 0.581096 -0.228923
v -0.034186 0.581881 -0.228040
v -0.033919 0.581766 -0.228105
v -0.034302 0.581131 -0.228566
v -0.034168 0.581354 -0.228404
v -0.034719 0.582423 -0.229450
v -0.033765 0.582014 -0.229679
v -0.035126 0.581749 -0.229940
v -0.034173 0.581340 -0.230170
v -0.034518 0.582755 -0.229209
v -0.034161 0.583346 -0.228779
v -0.033208 0.582937 -0.229008
v -0.033565 0.582346 -0.229438
v -0.034189 0.581174 -0.229749
v -0.033819 0.581788 -0.229303
v -0.035067 0.581550 -0.229538
v -0.034696 0.582164 -0.229092
usemtl None.001
s 1
f 1 2 3 4
f 5 6 7 8
f 9 7 10 11
f 1 12 13 2
f 12 8 7 9
f 13 5 14 2
f 4 3 15 16
f 14 17 18 19
f 17 1 4 18
f 2 14 19 3
f 16 15 20 21
f 3 19 22 15
f 19 18 23 22
f 18 4 16 23
f 24 25 26 27
f 22 23 28 29
f 23 16 21 28
f 15 22 29 20
f 11 10 30 31
f 6 32 33 34
f 32 9 11 33
f 7 6 34 10
f 31 30 35 36
f 10 34 37 30
f 34 33 38 37
f 33 11 31 38
f 36 35 39 40
f 38 31 36 41
f 30 37 42 35
f 37 38 41 42
f 43 44 40 39
f 35 42 43 39
f 42 41 44 43
f 41 36 40 44
f 45 46 47 48
f 49 50 51 52
f 53 54 55 51
f 56 57 45 48
f 57 53 51 50
f 56 48 58 49
f 46 59 60 47
f 58 61 62 63
f 63 62 46 45
f 48 47 61 58
f 59 64 25 60
f 47 60 65 61
f 61 65 66 62
f 62 66 59 46
f 20 29 67 68
f 65 24 69 66
f 66 69 64 59
f 60 25 24 65
f 54 70 71 55
f 52 72 73 74
f 74 73 54 53
f 51 55 72 52
f 70 75 76 71
f 55 71 77 72
f 72 77 78 73
f 73 78 70 54
f 76 39 43 79
f 78 80 75 70
f 71 76 79 77
f 77 79 80 78
f 74 56 49 52
f 45 57 50 63
f 75 40 39 76
f 80 44 40 75
f 79 43 44 80
f 74 53 57 56
f 58 63 50 49
f 14 5 8 17
f 32 6 5 13
f 81 82 83 84
f 69 24 27 85
f 21 20 68 86
f 87 81 84 88
f 1 17 8 12
f 32 13 12 9
f 29 28 89 67
f 64 69 85 90
f 28 21 86 89
f 25 64 90 26
f 91 92 93 94
f 88 84 95 96
f 97 98 92 91
f 98 99 100 92
f 101 97 91 102
f 103 87 88 104
f 82 103 104 83
f 99 101 102 100
f 105 96 106 107
f 93 108 109 110
f 84 83 111 95
f 102 91 94 112
f 83 104 105 111
f 100 102 112 108
f 92 100 108 93
f 104 88 96 105
f 113 107 106 114
f 109 115 116 110
f 96 95 114 106
f 94 93 110 116
f 95 111 113 114
f 112 94 116 115
f 111 105 107 113
f 108 112 115 109
f 85 27 117 118
f 27 26 119 117
f 90 85 118 120
f 26 90 120 119
f 68 67 121 122
f 86 68 122 123
f 89 86 123 124
f 67 89 124 121
f 121 124 87 103
f 125 126 97 101
f 127 125 101 99
f 126 128 98 97
f 123 122 82 81
f 128 127 99 98
f 120 118 126 125
f 117 119 127 128
f 124 123 81 87
f 119 120 125 127
f 122 121 103 82
f 118 117 128 126
